\relax 
\providecommand\hyper@newdestlabel[2]{}
\providecommand\HyperFirstAtBeginDocument{\AtBeginDocument}
\HyperFirstAtBeginDocument{\ifx\hyper@anchor\@undefined
\global\let\oldcontentsline\contentsline
\gdef\contentsline#1#2#3#4{\oldcontentsline{#1}{#2}{#3}}
\global\let\oldnewlabel\newlabel
\gdef\newlabel#1#2{\newlabelxx{#1}#2}
\gdef\newlabelxx#1#2#3#4#5#6{\oldnewlabel{#1}{{#2}{#3}}}
\AtEndDocument{\ifx\hyper@anchor\@undefined
\let\contentsline\oldcontentsline
\let\newlabel\oldnewlabel
\fi}
\fi}
\global\let\hyper@last\relax 
\gdef\HyperFirstAtBeginDocument#1{#1}
\providecommand*\HyPL@Entry[1]{}
\providecommand\babel@aux[2]{}
\@nameuse{bbl@beforestart}
\HyPL@Entry{0<</P(\376\377\0001)>>}
\babel@aux{english}{}
\@writefile{nav}{\headcommand {\slideentry {0}{0}{1}{1/1}{}{0}}}
\@writefile{nav}{\headcommand {\beamer@framepages {1}{1}}}
\HyPL@Entry{1<</P(\376\377\0002)>>}
\@writefile{toc}{\beamer@sectionintoc {1}{面向对象}{2}{0}{1}}
\@writefile{nav}{\headcommand {\beamer@sectionpages {1}{1}}}
\@writefile{nav}{\headcommand {\beamer@subsectionpages {1}{1}}}
\@writefile{nav}{\headcommand {\sectionentry {1}{面向对象}{2}{面向对象}{0}}}
\@writefile{nav}{\headcommand {\slideentry {1}{0}{1}{2/2}{}{0}}}
\@writefile{nav}{\headcommand {\beamer@framepages {2}{2}}}
\HyPL@Entry{2<</P(\376\377\0003)>>}
\newlabel{sec:面向对象}{{1}{3}{面向对象}{Doc-Start}{}}
\@writefile{snm}{\beamer@slide {sec:面向对象}{3}}
\@writefile{nav}{\headcommand {\slideentry {1}{0}{2}{3/3}{}{0}}}
\@writefile{nav}{\headcommand {\beamer@framepages {3}{3}}}
\HyPL@Entry{3<</P(\376\377\0004)>>}
\@writefile{nav}{\headcommand {\slideentry {1}{0}{3}{4/4}{}{0}}}
\@writefile{nav}{\headcommand {\beamer@framepages {4}{4}}}
\HyPL@Entry{4<</P(\376\377\0005)>>}
\@writefile{nav}{\headcommand {\slideentry {1}{0}{4}{5/5}{}{0}}}
\@writefile{nav}{\headcommand {\beamer@framepages {5}{5}}}
\HyPL@Entry{5<</P(\376\377\0006)>>}
\@writefile{nav}{\headcommand {\slideentry {1}{0}{5}{6/6}{}{0}}}
\@writefile{nav}{\headcommand {\beamer@framepages {6}{6}}}
\HyPL@Entry{6<</P(\376\377\0007)>>}
\@writefile{nav}{\headcommand {\slideentry {1}{0}{6}{7/7}{}{0}}}
\@writefile{nav}{\headcommand {\beamer@framepages {7}{7}}}
\HyPL@Entry{7<</P(\376\377\0008)>>}
\@writefile{nav}{\headcommand {\slideentry {1}{0}{7}{8/8}{}{0}}}
\@writefile{nav}{\headcommand {\beamer@framepages {8}{8}}}
\HyPL@Entry{8<</P(\376\377\0009)>>}
\@writefile{nav}{\headcommand {\slideentry {1}{0}{8}{9/9}{}{0}}}
\@writefile{nav}{\headcommand {\beamer@framepages {9}{9}}}
\HyPL@Entry{9<</P(\376\377\0001\0000)>>}
\@writefile{nav}{\headcommand {\slideentry {1}{0}{9}{10/10}{}{0}}}
\@writefile{nav}{\headcommand {\beamer@framepages {10}{10}}}
\HyPL@Entry{10<</P(\376\377\0001\0001)>>}
\@writefile{nav}{\headcommand {\slideentry {1}{0}{10}{11/11}{}{0}}}
\@writefile{nav}{\headcommand {\beamer@framepages {11}{11}}}
\HyPL@Entry{11<</P(\376\377\0001\0002)>>}
\@writefile{nav}{\headcommand {\slideentry {1}{0}{11}{12/12}{}{0}}}
\@writefile{nav}{\headcommand {\beamer@framepages {12}{12}}}
\HyPL@Entry{12<</P(\376\377\0001\0003)>>}
\@writefile{nav}{\headcommand {\slideentry {1}{0}{12}{13/13}{}{0}}}
\@writefile{nav}{\headcommand {\beamer@framepages {13}{13}}}
\HyPL@Entry{13<</P(\376\377\0001\0004)>>}
\@writefile{nav}{\headcommand {\slideentry {1}{0}{13}{14/14}{}{0}}}
\@writefile{nav}{\headcommand {\beamer@framepages {14}{14}}}
\HyPL@Entry{14<</P(\376\377\0001\0005)>>}
\@writefile{nav}{\headcommand {\slideentry {1}{0}{14}{15/15}{}{0}}}
\@writefile{nav}{\headcommand {\beamer@framepages {15}{15}}}
\HyPL@Entry{15<</P(\376\377\0001\0006)>>}
\@writefile{nav}{\headcommand {\slideentry {1}{0}{15}{16/16}{}{0}}}
\@writefile{nav}{\headcommand {\beamer@framepages {16}{16}}}
\HyPL@Entry{16<</P(\376\377\0001\0007)>>}
\@writefile{nav}{\headcommand {\slideentry {1}{0}{16}{17/17}{}{0}}}
\@writefile{nav}{\headcommand {\beamer@framepages {17}{17}}}
\HyPL@Entry{17<</P(\376\377\0001\0008)>>}
\@writefile{nav}{\headcommand {\slideentry {1}{0}{17}{18/18}{}{0}}}
\@writefile{nav}{\headcommand {\beamer@framepages {18}{18}}}
\HyPL@Entry{18<</P(\376\377\0001\0009)>>}
\@writefile{toc}{\beamer@sectionintoc {2}{函数式特性}{19}{0}{2}}
\@writefile{nav}{\headcommand {\beamer@sectionpages {2}{18}}}
\@writefile{nav}{\headcommand {\beamer@subsectionpages {2}{18}}}
\@writefile{nav}{\headcommand {\sectionentry {2}{函数式特性}{19}{函数式特性}{0}}}
\@writefile{nav}{\headcommand {\slideentry {2}{0}{1}{19/19}{}{0}}}
\@writefile{nav}{\headcommand {\beamer@framepages {19}{19}}}
\HyPL@Entry{19<</P(\376\377\0002\0000)>>}
\newlabel{sec:函数式特性}{{2}{20}{函数式特性}{Doc-Start}{}}
\@writefile{snm}{\beamer@slide {sec:函数式特性}{20}}
\@writefile{nav}{\headcommand {\slideentry {2}{0}{2}{20/20}{}{0}}}
\@writefile{nav}{\headcommand {\beamer@framepages {20}{20}}}
\HyPL@Entry{20<</P(\376\377\0002\0001)>>}
\@writefile{nav}{\headcommand {\slideentry {2}{0}{3}{21/21}{}{0}}}
\@writefile{nav}{\headcommand {\beamer@framepages {21}{21}}}
\HyPL@Entry{21<</P(\376\377\0002\0002)>>}
\@writefile{nav}{\headcommand {\slideentry {2}{0}{4}{22/22}{}{0}}}
\@writefile{nav}{\headcommand {\beamer@framepages {22}{22}}}
\HyPL@Entry{22<</P(\376\377\0002\0003)>>}
\@writefile{nav}{\headcommand {\slideentry {2}{0}{5}{23/23}{}{0}}}
\@writefile{nav}{\headcommand {\beamer@framepages {23}{23}}}
\HyPL@Entry{23<</P(\376\377\0002\0004)>>}
\@writefile{nav}{\headcommand {\slideentry {2}{0}{6}{24/24}{}{0}}}
\@writefile{nav}{\headcommand {\beamer@framepages {24}{24}}}
\HyPL@Entry{24<</P(\376\377\0002\0005)>>}
\@writefile{nav}{\headcommand {\slideentry {2}{0}{7}{25/25}{}{0}}}
\@writefile{nav}{\headcommand {\beamer@framepages {25}{25}}}
\HyPL@Entry{25<</P(\376\377\0002\0006)>>}
\@writefile{nav}{\headcommand {\slideentry {2}{0}{8}{26/26}{}{0}}}
\@writefile{nav}{\headcommand {\beamer@framepages {26}{26}}}
\HyPL@Entry{26<</P(\376\377\0002\0007)>>}
\@writefile{nav}{\headcommand {\slideentry {2}{0}{9}{27/27}{}{0}}}
\@writefile{nav}{\headcommand {\beamer@framepages {27}{27}}}
\HyPL@Entry{27<</P(\376\377\0002\0008)>>}
\@writefile{nav}{\headcommand {\slideentry {2}{0}{10}{28/28}{}{0}}}
\@writefile{nav}{\headcommand {\beamer@framepages {28}{28}}}
\HyPL@Entry{28<</P(\376\377\0002\0009)>>}
\@writefile{toc}{\beamer@subsectionintoc {2}{1}{Closure}{29}{0}{2}}
\@writefile{nav}{\headcommand {\beamer@subsectionpages {19}{28}}}
\@writefile{nav}{\headcommand {\beamer@subsectionentry {0}{2}{1}{29}{Closure}}}
\@writefile{nav}{\headcommand {\slideentry {2}{1}{1}{29/29}{Closure}{0}}}
\@writefile{nav}{\headcommand {\beamer@framepages {29}{29}}}
\HyPL@Entry{29<</P(\376\377\0003\0000)>>}
\newlabel{sub:Closure}{{1}{30}{Closure}{Doc-Start}{}}
\@writefile{snm}{\beamer@slide {sub:Closure}{30}}
\@writefile{nav}{\headcommand {\slideentry {2}{1}{2}{30/30}{Closure}{0}}}
\@writefile{nav}{\headcommand {\beamer@framepages {30}{30}}}
\HyPL@Entry{30<</P(\376\377\0003\0001)>>}
\@writefile{toc}{\beamer@subsectionintoc {2}{2}{Partial Function}{31}{0}{2}}
\@writefile{nav}{\headcommand {\beamer@subsectionpages {29}{30}}}
\@writefile{nav}{\headcommand {\beamer@subsectionentry {0}{2}{2}{31}{Partial Function}}}
\@writefile{nav}{\headcommand {\slideentry {2}{2}{1}{31/31}{Partial Function}{0}}}
\@writefile{nav}{\headcommand {\beamer@framepages {31}{31}}}
\HyPL@Entry{31<</P(\376\377\0003\0002)>>}
\newlabel{sub:Partial Function}{{2}{32}{Partial Function}{Doc-Start}{}}
\@writefile{snm}{\beamer@slide {sub:Partial Function}{32}}
\@writefile{nav}{\headcommand {\slideentry {2}{2}{2}{32/32}{Partial Function}{0}}}
\@writefile{nav}{\headcommand {\beamer@framepages {32}{32}}}
\HyPL@Entry{32<</P(\376\377\0003\0003)>>}
\@writefile{toc}{\beamer@subsectionintoc {2}{3}{List Comprehension}{33}{0}{2}}
\@writefile{nav}{\headcommand {\beamer@subsectionpages {31}{32}}}
\@writefile{nav}{\headcommand {\beamer@subsectionentry {0}{2}{3}{33}{List Comprehension}}}
\@writefile{nav}{\headcommand {\slideentry {2}{3}{1}{33/33}{List Comprehension}{0}}}
\@writefile{nav}{\headcommand {\beamer@framepages {33}{33}}}
\HyPL@Entry{33<</P(\376\377\0003\0004)>>}
\newlabel{sub:List Comprehension}{{3}{34}{List Comprehension}{Doc-Start}{}}
\@writefile{snm}{\beamer@slide {sub:List Comprehension}{34}}
\@writefile{nav}{\headcommand {\slideentry {2}{3}{2}{34/34}{List Comprehension}{0}}}
\@writefile{nav}{\headcommand {\beamer@framepages {34}{34}}}
\HyPL@Entry{34<</P(\376\377\0003\0005)>>}
\@writefile{toc}{\beamer@subsectionintoc {2}{4}{Map-Reduce}{35}{0}{2}}
\@writefile{nav}{\headcommand {\beamer@subsectionpages {33}{34}}}
\@writefile{nav}{\headcommand {\beamer@subsectionentry {0}{2}{4}{35}{Map-Reduce}}}
\@writefile{nav}{\headcommand {\slideentry {2}{4}{1}{35/35}{Map-Reduce}{0}}}
\@writefile{nav}{\headcommand {\beamer@framepages {35}{35}}}
\HyPL@Entry{35<</P(\376\377\0003\0006)>>}
\newlabel{sub:Map-Reduce}{{4}{36}{Map-Reduce}{Doc-Start}{}}
\@writefile{snm}{\beamer@slide {sub:Map-Reduce}{36}}
\@writefile{nav}{\headcommand {\slideentry {2}{4}{2}{36/36}{Map-Reduce}{0}}}
\@writefile{nav}{\headcommand {\beamer@framepages {36}{36}}}
\HyPL@Entry{36<</P(\376\377\0003\0007)>>}
\@writefile{toc}{\beamer@sectionintoc {3}{一点更多的数据结构}{37}{0}{3}}
\@writefile{nav}{\headcommand {\beamer@sectionpages {19}{36}}}
\@writefile{nav}{\headcommand {\beamer@subsectionpages {35}{36}}}
\@writefile{nav}{\headcommand {\sectionentry {3}{一点更多的数据结构}{37}{一点更多的数据结构}{0}}}
\@writefile{nav}{\headcommand {\slideentry {3}{0}{1}{37/37}{}{0}}}
\@writefile{nav}{\headcommand {\beamer@framepages {37}{37}}}
\HyPL@Entry{37<</P(\376\377\0003\0008)>>}
\newlabel{sec:一点更多的数据结构}{{3}{38}{一点更多的数据结构}{Doc-Start}{}}
\@writefile{snm}{\beamer@slide {sec:一点更多的数据结构}{38}}
\@writefile{toc}{\beamer@subsectionintoc {3}{1}{元组}{38}{0}{3}}
\@writefile{nav}{\headcommand {\beamer@subsectionpages {37}{37}}}
\@writefile{nav}{\headcommand {\beamer@subsectionentry {0}{3}{1}{38}{元组}}}
\@writefile{nav}{\headcommand {\slideentry {3}{1}{1}{38/38}{元组}{0}}}
\@writefile{nav}{\headcommand {\beamer@framepages {38}{38}}}
\HyPL@Entry{38<</P(\376\377\0003\0009)>>}
\newlabel{ssub:元组}{{1}{39}{元组}{Doc-Start}{}}
\@writefile{snm}{\beamer@slide {ssub:元组}{39}}
\@writefile{nav}{\headcommand {\slideentry {3}{1}{2}{39/39}{元组}{0}}}
\@writefile{nav}{\headcommand {\beamer@framepages {39}{39}}}
\HyPL@Entry{39<</P(\376\377\0004\0000)>>}
\@writefile{nav}{\headcommand {\slideentry {3}{1}{3}{40/40}{元组}{0}}}
\@writefile{nav}{\headcommand {\beamer@framepages {40}{40}}}
\HyPL@Entry{40<</P(\376\377\0004\0001)>>}
\@writefile{nav}{\headcommand {\slideentry {3}{1}{4}{41/41}{元组}{0}}}
\@writefile{nav}{\headcommand {\beamer@framepages {41}{41}}}
\HyPL@Entry{41<</P(\376\377\0004\0002)>>}
\@writefile{nav}{\headcommand {\slideentry {3}{1}{5}{42/42}{元组}{0}}}
\@writefile{nav}{\headcommand {\beamer@framepages {42}{42}}}
\HyPL@Entry{42<</P(\376\377\0004\0003)>>}
\@writefile{nav}{\headcommand {\slideentry {3}{1}{6}{43/43}{元组}{0}}}
\@writefile{nav}{\headcommand {\beamer@framepages {43}{43}}}
\HyPL@Entry{43<</P(\376\377\0004\0004)>>}
\@writefile{toc}{\beamer@subsectionintoc {3}{2}{字典}{44}{0}{3}}
\@writefile{nav}{\headcommand {\beamer@subsectionpages {38}{43}}}
\@writefile{nav}{\headcommand {\beamer@subsectionentry {0}{3}{2}{44}{字典}}}
\@writefile{nav}{\headcommand {\slideentry {3}{2}{1}{44/44}{字典}{0}}}
\@writefile{nav}{\headcommand {\beamer@framepages {44}{44}}}
\HyPL@Entry{44<</P(\376\377\0004\0005)>>}
\newlabel{sub:字典}{{2}{45}{字典}{Doc-Start}{}}
\@writefile{snm}{\beamer@slide {sub:字典}{45}}
\@writefile{nav}{\headcommand {\slideentry {3}{2}{2}{45/45}{字典}{0}}}
\@writefile{nav}{\headcommand {\beamer@framepages {45}{45}}}
\HyPL@Entry{45<</P(\376\377\0004\0006)>>}
\@writefile{nav}{\headcommand {\slideentry {3}{2}{3}{46/46}{字典}{0}}}
\@writefile{nav}{\headcommand {\beamer@framepages {46}{46}}}
\HyPL@Entry{46<</P(\376\377\0004\0007)>>}
\@writefile{nav}{\headcommand {\slideentry {3}{2}{4}{47/47}{字典}{0}}}
\@writefile{nav}{\headcommand {\beamer@framepages {47}{47}}}
\HyPL@Entry{47<</P(\376\377\0004\0008)>>}
\@writefile{nav}{\headcommand {\slideentry {3}{2}{5}{48/48}{字典}{0}}}
\@writefile{nav}{\headcommand {\beamer@framepages {48}{48}}}
\HyPL@Entry{48<</P(\376\377\0004\0009)>>}
\@writefile{nav}{\headcommand {\slideentry {3}{2}{6}{49/49}{字典}{0}}}
\@writefile{nav}{\headcommand {\beamer@framepages {49}{49}}}
\HyPL@Entry{49<</P(\376\377\0005\0000)>>}
\@writefile{nav}{\headcommand {\slideentry {3}{2}{7}{50/50}{字典}{0}}}
\@writefile{nav}{\headcommand {\beamer@framepages {50}{50}}}
\HyPL@Entry{50<</P(\376\377\0005\0001)>>}
\@writefile{nav}{\headcommand {\slideentry {3}{2}{8}{51/51}{字典}{0}}}
\@writefile{nav}{\headcommand {\beamer@framepages {51}{51}}}
\HyPL@Entry{51<</P(\376\377\0005\0002)>>}
\@writefile{toc}{\beamer@subsectionintoc {3}{3}{集合}{52}{0}{3}}
\@writefile{nav}{\headcommand {\beamer@subsectionpages {44}{51}}}
\@writefile{nav}{\headcommand {\beamer@subsectionentry {0}{3}{3}{52}{集合}}}
\@writefile{nav}{\headcommand {\slideentry {3}{3}{1}{52/52}{集合}{0}}}
\@writefile{nav}{\headcommand {\beamer@framepages {52}{52}}}
\HyPL@Entry{52<</P(\376\377\0005\0003)>>}
\newlabel{ssub:集合}{{3}{53}{集合}{Doc-Start}{}}
\@writefile{snm}{\beamer@slide {ssub:集合}{53}}
\@writefile{nav}{\headcommand {\slideentry {3}{3}{2}{53/53}{集合}{0}}}
\@writefile{nav}{\headcommand {\beamer@framepages {53}{53}}}
\HyPL@Entry{53<</P(\376\377\0005\0004)>>}
\@writefile{nav}{\headcommand {\slideentry {3}{3}{3}{54/54}{集合}{0}}}
\@writefile{nav}{\headcommand {\beamer@framepages {54}{54}}}
\HyPL@Entry{54<</P(\376\377\0005\0005)>>}
\@writefile{nav}{\headcommand {\slideentry {3}{3}{4}{55/55}{集合}{0}}}
\@writefile{nav}{\headcommand {\beamer@framepages {55}{55}}}
\@writefile{nav}{\headcommand {\beamer@partpages {1}{55}}}
\@writefile{nav}{\headcommand {\beamer@subsectionpages {52}{55}}}
\@writefile{nav}{\headcommand {\beamer@sectionpages {37}{55}}}
\@writefile{nav}{\headcommand {\beamer@documentpages {55}}}
\@writefile{nav}{\headcommand {\gdef \inserttotalframenumber {55}}}
\gdef \@abspage@last{55}
