\relax 
\providecommand\hyper@newdestlabel[2]{}
\providecommand\HyperFirstAtBeginDocument{\AtBeginDocument}
\HyperFirstAtBeginDocument{\ifx\hyper@anchor\@undefined
\global\let\oldcontentsline\contentsline
\gdef\contentsline#1#2#3#4{\oldcontentsline{#1}{#2}{#3}}
\global\let\oldnewlabel\newlabel
\gdef\newlabel#1#2{\newlabelxx{#1}#2}
\gdef\newlabelxx#1#2#3#4#5#6{\oldnewlabel{#1}{{#2}{#3}}}
\AtEndDocument{\ifx\hyper@anchor\@undefined
\let\contentsline\oldcontentsline
\let\newlabel\oldnewlabel
\fi}
\fi}
\global\let\hyper@last\relax 
\gdef\HyperFirstAtBeginDocument#1{#1}
\providecommand*\HyPL@Entry[1]{}
\HyPL@Entry{0<</P(1)>>}
\babel@aux{english}{}
\@writefile{nav}{\headcommand {\slideentry {0}{0}{1}{1/1}{}{0}}}
\@writefile{nav}{\headcommand {\beamer@framepages {1}{1}}}
\HyPL@Entry{1<</P(2)>>}
\@writefile{nav}{\headcommand {\slideentry {0}{0}{2}{2/2}{}{0}}}
\@writefile{nav}{\headcommand {\beamer@framepages {2}{2}}}
\HyPL@Entry{2<</P(3)>>}
\@writefile{toc}{\beamer@sectionintoc {1}{Pandas简介}{3}{0}{1}}
\@writefile{nav}{\headcommand {\beamer@sectionpages {1}{2}}}
\@writefile{nav}{\headcommand {\beamer@subsectionpages {1}{2}}}
\@writefile{nav}{\headcommand {\sectionentry {1}{Pandas简介}{3}{Pandas简介}{0}}}
\@writefile{nav}{\headcommand {\slideentry {1}{0}{1}{3/3}{}{0}}}
\@writefile{nav}{\headcommand {\beamer@framepages {3}{3}}}
\HyPL@Entry{3<</P(4)>>}
\@writefile{nav}{\headcommand {\slideentry {1}{0}{2}{4/4}{}{0}}}
\@writefile{nav}{\headcommand {\beamer@framepages {4}{4}}}
\HyPL@Entry{4<</P(5)>>}
\@writefile{nav}{\headcommand {\slideentry {1}{0}{3}{5/5}{}{0}}}
\@writefile{nav}{\headcommand {\beamer@framepages {5}{5}}}
\HyPL@Entry{5<</P(6)>>}
\@writefile{nav}{\headcommand {\slideentry {1}{0}{4}{6/6}{}{0}}}
\@writefile{nav}{\headcommand {\beamer@framepages {6}{6}}}
\HyPL@Entry{6<</P(7)>>}
\@writefile{nav}{\headcommand {\slideentry {1}{0}{5}{7/7}{}{0}}}
\@writefile{nav}{\headcommand {\beamer@framepages {7}{7}}}
\HyPL@Entry{7<</P(8)>>}
\@writefile{nav}{\headcommand {\slideentry {1}{0}{6}{8/8}{}{0}}}
\@writefile{nav}{\headcommand {\beamer@framepages {8}{8}}}
\HyPL@Entry{8<</P(9)>>}
\@writefile{nav}{\headcommand {\slideentry {1}{0}{7}{9/9}{}{0}}}
\@writefile{nav}{\headcommand {\beamer@framepages {9}{9}}}
\HyPL@Entry{9<</P(10)>>}
\@writefile{nav}{\headcommand {\slideentry {1}{0}{8}{10/10}{}{0}}}
\@writefile{nav}{\headcommand {\beamer@framepages {10}{10}}}
\HyPL@Entry{10<</P(11)>>}
\@writefile{nav}{\headcommand {\slideentry {1}{0}{9}{11/11}{}{0}}}
\@writefile{nav}{\headcommand {\beamer@framepages {11}{11}}}
\HyPL@Entry{11<</P(12)>>}
\@writefile{nav}{\headcommand {\slideentry {1}{0}{10}{12/12}{}{0}}}
\@writefile{nav}{\headcommand {\beamer@framepages {12}{12}}}
\HyPL@Entry{12<</P(13)>>}
\@writefile{nav}{\headcommand {\slideentry {1}{0}{11}{13/13}{}{0}}}
\@writefile{nav}{\headcommand {\beamer@framepages {13}{13}}}
\HyPL@Entry{13<</P(14)>>}
\@writefile{nav}{\headcommand {\slideentry {1}{0}{12}{14/14}{}{0}}}
\@writefile{nav}{\headcommand {\beamer@framepages {14}{14}}}
\HyPL@Entry{14<</P(15)>>}
\@writefile{nav}{\headcommand {\slideentry {1}{0}{13}{15/15}{}{0}}}
\@writefile{nav}{\headcommand {\beamer@framepages {15}{15}}}
\HyPL@Entry{15<</P(16)>>}
\@writefile{nav}{\headcommand {\slideentry {1}{0}{14}{16/16}{}{0}}}
\@writefile{nav}{\headcommand {\beamer@framepages {16}{16}}}
\HyPL@Entry{16<</P(17)>>}
\@writefile{nav}{\headcommand {\slideentry {1}{0}{15}{17/17}{}{0}}}
\@writefile{nav}{\headcommand {\beamer@framepages {17}{17}}}
\HyPL@Entry{17<</P(18)>>}
\@writefile{nav}{\headcommand {\slideentry {1}{0}{16}{18/18}{}{0}}}
\@writefile{nav}{\headcommand {\beamer@framepages {18}{18}}}
\HyPL@Entry{18<</P(19)>>}
\@writefile{nav}{\headcommand {\slideentry {1}{0}{17}{19/19}{}{0}}}
\@writefile{nav}{\headcommand {\beamer@framepages {19}{19}}}
\HyPL@Entry{19<</P(20)>>}
\@writefile{nav}{\headcommand {\slideentry {1}{0}{18}{20/20}{}{0}}}
\@writefile{nav}{\headcommand {\beamer@framepages {20}{20}}}
\HyPL@Entry{20<</P(21)>>}
\@writefile{nav}{\headcommand {\slideentry {1}{0}{19}{21/21}{}{0}}}
\@writefile{nav}{\headcommand {\beamer@framepages {21}{21}}}
\HyPL@Entry{21<</P(22)>>}
\@writefile{nav}{\headcommand {\slideentry {1}{0}{20}{22/22}{}{0}}}
\@writefile{nav}{\headcommand {\beamer@framepages {22}{22}}}
\HyPL@Entry{22<</P(23)>>}
\@writefile{nav}{\headcommand {\slideentry {1}{0}{21}{23/23}{}{0}}}
\@writefile{nav}{\headcommand {\beamer@framepages {23}{23}}}
\HyPL@Entry{23<</P(24)>>}
\@writefile{nav}{\headcommand {\slideentry {1}{0}{22}{24/24}{}{0}}}
\@writefile{nav}{\headcommand {\beamer@framepages {24}{24}}}
\HyPL@Entry{24<</P(25)>>}
\@writefile{nav}{\headcommand {\slideentry {1}{0}{23}{25/25}{}{0}}}
\@writefile{nav}{\headcommand {\beamer@framepages {25}{25}}}
\HyPL@Entry{25<</P(26)>>}
\@writefile{nav}{\headcommand {\slideentry {1}{0}{24}{26/26}{}{0}}}
\@writefile{nav}{\headcommand {\beamer@framepages {26}{26}}}
\HyPL@Entry{26<</P(27)>>}
\@writefile{nav}{\headcommand {\slideentry {1}{0}{25}{27/27}{}{0}}}
\@writefile{nav}{\headcommand {\beamer@framepages {27}{27}}}
\HyPL@Entry{27<</P(28)>>}
\@writefile{nav}{\headcommand {\slideentry {1}{0}{26}{28/28}{}{0}}}
\@writefile{nav}{\headcommand {\beamer@framepages {28}{28}}}
\HyPL@Entry{28<</P(29)>>}
\@writefile{nav}{\headcommand {\slideentry {1}{0}{27}{29/29}{}{0}}}
\@writefile{nav}{\headcommand {\beamer@framepages {29}{29}}}
\HyPL@Entry{29<</P(30)>>}
\@writefile{nav}{\headcommand {\slideentry {1}{0}{28}{30/30}{}{0}}}
\@writefile{nav}{\headcommand {\beamer@framepages {30}{30}}}
\HyPL@Entry{30<</P(31)>>}
\@writefile{nav}{\headcommand {\slideentry {1}{0}{29}{31/31}{}{0}}}
\@writefile{nav}{\headcommand {\beamer@framepages {31}{31}}}
\HyPL@Entry{31<</P(32)>>}
\@writefile{nav}{\headcommand {\slideentry {1}{0}{30}{32/32}{}{0}}}
\@writefile{nav}{\headcommand {\beamer@framepages {32}{32}}}
\HyPL@Entry{32<</P(33)>>}
\@writefile{nav}{\headcommand {\slideentry {1}{0}{31}{33/33}{}{0}}}
\@writefile{nav}{\headcommand {\beamer@framepages {33}{33}}}
\HyPL@Entry{33<</P(34)>>}
\@writefile{nav}{\headcommand {\slideentry {1}{0}{32}{34/34}{}{0}}}
\@writefile{nav}{\headcommand {\beamer@framepages {34}{34}}}
\HyPL@Entry{34<</P(35)>>}
\@writefile{nav}{\headcommand {\slideentry {1}{0}{33}{35/35}{}{0}}}
\@writefile{nav}{\headcommand {\beamer@framepages {35}{35}}}
\HyPL@Entry{35<</P(36)>>}
\@writefile{nav}{\headcommand {\slideentry {1}{0}{34}{36/36}{}{0}}}
\@writefile{nav}{\headcommand {\beamer@framepages {36}{36}}}
\HyPL@Entry{36<</P(37)>>}
\@writefile{nav}{\headcommand {\slideentry {1}{0}{35}{37/37}{}{0}}}
\@writefile{nav}{\headcommand {\beamer@framepages {37}{37}}}
\HyPL@Entry{37<</P(38)>>}
\@writefile{nav}{\headcommand {\slideentry {1}{0}{36}{38/38}{}{0}}}
\@writefile{nav}{\headcommand {\beamer@framepages {38}{38}}}
\HyPL@Entry{38<</P(39)>>}
\@writefile{nav}{\headcommand {\slideentry {1}{0}{37}{39/39}{}{0}}}
\@writefile{nav}{\headcommand {\beamer@framepages {39}{39}}}
\HyPL@Entry{39<</P(40)>>}
\@writefile{nav}{\headcommand {\slideentry {1}{0}{38}{40/40}{}{0}}}
\@writefile{nav}{\headcommand {\beamer@framepages {40}{40}}}
\HyPL@Entry{40<</P(41)>>}
\@writefile{nav}{\headcommand {\slideentry {1}{0}{39}{41/41}{}{0}}}
\@writefile{nav}{\headcommand {\beamer@framepages {41}{41}}}
\HyPL@Entry{41<</P(42)>>}
\@writefile{nav}{\headcommand {\slideentry {1}{0}{40}{42/42}{}{0}}}
\@writefile{nav}{\headcommand {\beamer@framepages {42}{42}}}
\HyPL@Entry{42<</P(43)>>}
\@writefile{nav}{\headcommand {\slideentry {1}{0}{41}{43/43}{}{0}}}
\@writefile{nav}{\headcommand {\beamer@framepages {43}{43}}}
\HyPL@Entry{43<</P(44)>>}
\@writefile{nav}{\headcommand {\slideentry {1}{0}{42}{44/44}{}{0}}}
\@writefile{nav}{\headcommand {\beamer@framepages {44}{44}}}
\HyPL@Entry{44<</P(45)>>}
\@writefile{nav}{\headcommand {\slideentry {1}{0}{43}{45/45}{}{0}}}
\@writefile{nav}{\headcommand {\beamer@framepages {45}{45}}}
\HyPL@Entry{45<</P(46)>>}
\@writefile{nav}{\headcommand {\slideentry {1}{0}{44}{46/46}{}{0}}}
\@writefile{nav}{\headcommand {\beamer@framepages {46}{46}}}
\HyPL@Entry{46<</P(47)>>}
\@writefile{nav}{\headcommand {\slideentry {1}{0}{45}{47/47}{}{0}}}
\@writefile{nav}{\headcommand {\beamer@framepages {47}{47}}}
\HyPL@Entry{47<</P(48)>>}
\@writefile{nav}{\headcommand {\slideentry {1}{0}{46}{48/48}{}{0}}}
\@writefile{nav}{\headcommand {\beamer@framepages {48}{48}}}
\HyPL@Entry{48<</P(49)>>}
\@writefile{nav}{\headcommand {\slideentry {1}{0}{47}{49/49}{}{0}}}
\@writefile{nav}{\headcommand {\beamer@framepages {49}{49}}}
\HyPL@Entry{49<</P(50)>>}
\@writefile{nav}{\headcommand {\slideentry {1}{0}{48}{50/50}{}{0}}}
\@writefile{nav}{\headcommand {\beamer@framepages {50}{50}}}
\HyPL@Entry{50<</P(51)>>}
\@writefile{nav}{\headcommand {\slideentry {1}{0}{49}{51/51}{}{0}}}
\@writefile{nav}{\headcommand {\beamer@framepages {51}{51}}}
\HyPL@Entry{51<</P(52)>>}
\@writefile{nav}{\headcommand {\slideentry {1}{0}{50}{52/52}{}{0}}}
\@writefile{nav}{\headcommand {\beamer@framepages {52}{52}}}
\HyPL@Entry{52<</P(53)>>}
\@writefile{nav}{\headcommand {\slideentry {1}{0}{51}{53/53}{}{0}}}
\@writefile{nav}{\headcommand {\beamer@framepages {53}{53}}}
\HyPL@Entry{53<</P(54)>>}
\@writefile{nav}{\headcommand {\slideentry {1}{0}{52}{54/54}{}{0}}}
\@writefile{nav}{\headcommand {\beamer@framepages {54}{54}}}
\HyPL@Entry{54<</P(55)>>}
\@writefile{nav}{\headcommand {\slideentry {1}{0}{53}{55/55}{}{0}}}
\@writefile{nav}{\headcommand {\beamer@framepages {55}{55}}}
\HyPL@Entry{55<</P(56)>>}
\@writefile{nav}{\headcommand {\slideentry {1}{0}{54}{56/56}{}{0}}}
\@writefile{nav}{\headcommand {\beamer@framepages {56}{56}}}
\HyPL@Entry{56<</P(57)>>}
\@writefile{nav}{\headcommand {\slideentry {1}{0}{55}{57/57}{}{0}}}
\@writefile{nav}{\headcommand {\beamer@framepages {57}{57}}}
\HyPL@Entry{57<</P(58)>>}
\@writefile{nav}{\headcommand {\slideentry {1}{0}{56}{58/58}{}{0}}}
\@writefile{nav}{\headcommand {\beamer@framepages {58}{58}}}
\HyPL@Entry{58<</P(59)>>}
\@writefile{nav}{\headcommand {\slideentry {1}{0}{57}{59/59}{}{0}}}
\@writefile{nav}{\headcommand {\beamer@framepages {59}{59}}}
\HyPL@Entry{59<</P(60)>>}
\@writefile{nav}{\headcommand {\slideentry {1}{0}{58}{60/60}{}{0}}}
\@writefile{nav}{\headcommand {\beamer@framepages {60}{60}}}
\HyPL@Entry{60<</P(61)>>}
\@writefile{nav}{\headcommand {\slideentry {1}{0}{59}{61/61}{}{0}}}
\@writefile{nav}{\headcommand {\beamer@framepages {61}{61}}}
\HyPL@Entry{61<</P(62)>>}
\@writefile{nav}{\headcommand {\slideentry {1}{0}{60}{62/62}{}{0}}}
\@writefile{nav}{\headcommand {\beamer@framepages {62}{62}}}
\HyPL@Entry{62<</P(63)>>}
\@writefile{nav}{\headcommand {\slideentry {1}{0}{61}{63/63}{}{0}}}
\@writefile{nav}{\headcommand {\beamer@framepages {63}{63}}}
\HyPL@Entry{63<</P(64)>>}
\@writefile{nav}{\headcommand {\slideentry {1}{0}{62}{64/64}{}{0}}}
\@writefile{nav}{\headcommand {\beamer@framepages {64}{64}}}
\HyPL@Entry{64<</P(65)>>}
\@writefile{nav}{\headcommand {\slideentry {1}{0}{63}{65/65}{}{0}}}
\@writefile{nav}{\headcommand {\beamer@framepages {65}{65}}}
\HyPL@Entry{65<</P(66)>>}
\@writefile{nav}{\headcommand {\slideentry {1}{0}{64}{66/66}{}{0}}}
\@writefile{nav}{\headcommand {\beamer@framepages {66}{66}}}
\HyPL@Entry{66<</P(67)>>}
\@writefile{nav}{\headcommand {\slideentry {1}{0}{65}{67/67}{}{0}}}
\@writefile{nav}{\headcommand {\beamer@framepages {67}{67}}}
\HyPL@Entry{67<</P(68)>>}
\@writefile{nav}{\headcommand {\slideentry {1}{0}{66}{68/68}{}{0}}}
\@writefile{nav}{\headcommand {\beamer@framepages {68}{68}}}
\HyPL@Entry{68<</P(69)>>}
\@writefile{nav}{\headcommand {\slideentry {1}{0}{67}{69/69}{}{0}}}
\@writefile{nav}{\headcommand {\beamer@framepages {69}{69}}}
\HyPL@Entry{69<</P(70)>>}
\@writefile{nav}{\headcommand {\slideentry {1}{0}{68}{70/70}{}{0}}}
\@writefile{nav}{\headcommand {\beamer@framepages {70}{70}}}
\HyPL@Entry{70<</P(71)>>}
\@writefile{nav}{\headcommand {\slideentry {1}{0}{69}{71/71}{}{0}}}
\@writefile{nav}{\headcommand {\beamer@framepages {71}{71}}}
\HyPL@Entry{71<</P(72)>>}
\@writefile{nav}{\headcommand {\slideentry {1}{0}{70}{72/72}{}{0}}}
\@writefile{nav}{\headcommand {\beamer@framepages {72}{72}}}
\HyPL@Entry{72<</P(73)>>}
\@writefile{nav}{\headcommand {\slideentry {1}{0}{71}{73/73}{}{0}}}
\@writefile{nav}{\headcommand {\beamer@framepages {73}{73}}}
\HyPL@Entry{73<</P(74)>>}
\@writefile{nav}{\headcommand {\slideentry {1}{0}{72}{74/74}{}{0}}}
\@writefile{nav}{\headcommand {\beamer@framepages {74}{74}}}
\HyPL@Entry{74<</P(75)>>}
\@writefile{nav}{\headcommand {\slideentry {1}{0}{73}{75/75}{}{0}}}
\@writefile{nav}{\headcommand {\beamer@framepages {75}{75}}}
\HyPL@Entry{75<</P(76)>>}
\@writefile{nav}{\headcommand {\slideentry {1}{0}{74}{76/76}{}{0}}}
\@writefile{nav}{\headcommand {\beamer@framepages {76}{76}}}
\HyPL@Entry{76<</P(77)>>}
\@writefile{nav}{\headcommand {\slideentry {1}{0}{75}{77/77}{}{0}}}
\@writefile{nav}{\headcommand {\beamer@framepages {77}{77}}}
\HyPL@Entry{77<</P(78)>>}
\@writefile{nav}{\headcommand {\slideentry {1}{0}{76}{78/78}{}{0}}}
\@writefile{nav}{\headcommand {\beamer@framepages {78}{78}}}
\HyPL@Entry{78<</P(79)>>}
\@writefile{nav}{\headcommand {\slideentry {1}{0}{77}{79/79}{}{0}}}
\@writefile{nav}{\headcommand {\beamer@framepages {79}{79}}}
\HyPL@Entry{79<</P(80)>>}
\@writefile{nav}{\headcommand {\slideentry {1}{0}{78}{80/80}{}{0}}}
\@writefile{nav}{\headcommand {\beamer@framepages {80}{80}}}
\HyPL@Entry{80<</P(81)>>}
\@writefile{nav}{\headcommand {\slideentry {1}{0}{79}{81/81}{}{0}}}
\@writefile{nav}{\headcommand {\beamer@framepages {81}{81}}}
\HyPL@Entry{81<</P(82)>>}
\@writefile{nav}{\headcommand {\slideentry {1}{0}{80}{82/82}{}{0}}}
\@writefile{nav}{\headcommand {\beamer@framepages {82}{82}}}
\HyPL@Entry{82<</P(83)>>}
\@writefile{nav}{\headcommand {\slideentry {1}{0}{81}{83/83}{}{0}}}
\@writefile{nav}{\headcommand {\beamer@framepages {83}{83}}}
\HyPL@Entry{83<</P(84)>>}
\@writefile{nav}{\headcommand {\slideentry {1}{0}{82}{84/84}{}{0}}}
\@writefile{nav}{\headcommand {\beamer@framepages {84}{84}}}
\HyPL@Entry{84<</P(85)>>}
\@writefile{nav}{\headcommand {\slideentry {1}{0}{83}{85/85}{}{0}}}
\@writefile{nav}{\headcommand {\beamer@framepages {85}{85}}}
\HyPL@Entry{85<</P(86)>>}
\@writefile{nav}{\headcommand {\slideentry {1}{0}{84}{86/86}{}{0}}}
\@writefile{nav}{\headcommand {\beamer@framepages {86}{86}}}
\HyPL@Entry{86<</P(87)>>}
\@writefile{nav}{\headcommand {\slideentry {1}{0}{85}{87/87}{}{0}}}
\@writefile{nav}{\headcommand {\beamer@framepages {87}{87}}}
\HyPL@Entry{87<</P(88)>>}
\@writefile{nav}{\headcommand {\slideentry {1}{0}{86}{88/88}{}{0}}}
\@writefile{nav}{\headcommand {\beamer@framepages {88}{88}}}
\HyPL@Entry{88<</P(89)>>}
\@writefile{nav}{\headcommand {\slideentry {1}{0}{87}{89/89}{}{0}}}
\@writefile{nav}{\headcommand {\beamer@framepages {89}{89}}}
\HyPL@Entry{89<</P(90)>>}
\@writefile{nav}{\headcommand {\slideentry {1}{0}{88}{90/90}{}{0}}}
\@writefile{nav}{\headcommand {\beamer@framepages {90}{90}}}
\HyPL@Entry{90<</P(91)>>}
\@writefile{nav}{\headcommand {\slideentry {1}{0}{89}{91/91}{}{0}}}
\@writefile{nav}{\headcommand {\beamer@framepages {91}{91}}}
\HyPL@Entry{91<</P(92)>>}
\@writefile{nav}{\headcommand {\slideentry {1}{0}{90}{92/92}{}{0}}}
\@writefile{nav}{\headcommand {\beamer@framepages {92}{92}}}
\HyPL@Entry{92<</P(93)>>}
\@writefile{nav}{\headcommand {\slideentry {1}{0}{91}{93/93}{}{0}}}
\@writefile{nav}{\headcommand {\beamer@framepages {93}{93}}}
\HyPL@Entry{93<</P(94)>>}
\@writefile{nav}{\headcommand {\slideentry {1}{0}{92}{94/94}{}{0}}}
\@writefile{nav}{\headcommand {\beamer@framepages {94}{94}}}
\HyPL@Entry{94<</P(95)>>}
\@writefile{nav}{\headcommand {\slideentry {1}{0}{93}{95/95}{}{0}}}
\@writefile{nav}{\headcommand {\beamer@framepages {95}{95}}}
\HyPL@Entry{95<</P(96)>>}
\@writefile{nav}{\headcommand {\slideentry {1}{0}{94}{96/96}{}{0}}}
\@writefile{nav}{\headcommand {\beamer@framepages {96}{96}}}
\HyPL@Entry{96<</P(97)>>}
\@writefile{nav}{\headcommand {\slideentry {1}{0}{95}{97/97}{}{0}}}
\@writefile{nav}{\headcommand {\beamer@framepages {97}{97}}}
\HyPL@Entry{97<</P(98)>>}
\@writefile{nav}{\headcommand {\slideentry {1}{0}{96}{98/98}{}{0}}}
\@writefile{nav}{\headcommand {\beamer@framepages {98}{98}}}
\HyPL@Entry{98<</P(99)>>}
\@writefile{nav}{\headcommand {\slideentry {1}{0}{97}{99/99}{}{0}}}
\@writefile{nav}{\headcommand {\beamer@framepages {99}{99}}}
\HyPL@Entry{99<</P(100)>>}
\@writefile{nav}{\headcommand {\slideentry {1}{0}{98}{100/100}{}{0}}}
\@writefile{nav}{\headcommand {\beamer@framepages {100}{100}}}
\HyPL@Entry{100<</P(101)>>}
\@writefile{nav}{\headcommand {\slideentry {1}{0}{99}{101/101}{}{0}}}
\@writefile{nav}{\headcommand {\beamer@framepages {101}{101}}}
\HyPL@Entry{101<</P(102)>>}
\@writefile{nav}{\headcommand {\slideentry {1}{0}{100}{102/102}{}{0}}}
\@writefile{nav}{\headcommand {\beamer@framepages {102}{102}}}
\HyPL@Entry{102<</P(103)>>}
\@writefile{nav}{\headcommand {\slideentry {1}{0}{101}{103/103}{}{0}}}
\@writefile{nav}{\headcommand {\beamer@framepages {103}{103}}}
\HyPL@Entry{103<</P(104)>>}
\@writefile{nav}{\headcommand {\slideentry {1}{0}{102}{104/104}{}{0}}}
\@writefile{nav}{\headcommand {\beamer@framepages {104}{104}}}
\HyPL@Entry{104<</P(105)>>}
\@writefile{nav}{\headcommand {\slideentry {1}{0}{103}{105/105}{}{0}}}
\@writefile{nav}{\headcommand {\beamer@framepages {105}{105}}}
\HyPL@Entry{105<</P(106)>>}
\@writefile{nav}{\headcommand {\slideentry {1}{0}{104}{106/106}{}{0}}}
\@writefile{nav}{\headcommand {\beamer@framepages {106}{106}}}
\HyPL@Entry{106<</P(107)>>}
\@writefile{nav}{\headcommand {\slideentry {1}{0}{105}{107/107}{}{0}}}
\@writefile{nav}{\headcommand {\beamer@framepages {107}{107}}}
\HyPL@Entry{107<</P(108)>>}
\@writefile{nav}{\headcommand {\slideentry {1}{0}{106}{108/108}{}{0}}}
\@writefile{nav}{\headcommand {\beamer@framepages {108}{108}}}
\HyPL@Entry{108<</P(109)>>}
\@writefile{nav}{\headcommand {\slideentry {1}{0}{107}{109/109}{}{0}}}
\@writefile{nav}{\headcommand {\beamer@framepages {109}{109}}}
\HyPL@Entry{109<</P(110)>>}
\@writefile{nav}{\headcommand {\slideentry {1}{0}{108}{110/110}{}{0}}}
\@writefile{nav}{\headcommand {\beamer@framepages {110}{110}}}
\HyPL@Entry{110<</P(111)>>}
\@writefile{nav}{\headcommand {\slideentry {1}{0}{109}{111/111}{}{0}}}
\@writefile{nav}{\headcommand {\beamer@framepages {111}{111}}}
\HyPL@Entry{111<</P(112)>>}
\@writefile{nav}{\headcommand {\slideentry {1}{0}{110}{112/112}{}{0}}}
\@writefile{nav}{\headcommand {\beamer@framepages {112}{112}}}
\HyPL@Entry{112<</P(113)>>}
\@writefile{nav}{\headcommand {\slideentry {1}{0}{111}{113/113}{}{0}}}
\@writefile{nav}{\headcommand {\beamer@framepages {113}{113}}}
\HyPL@Entry{113<</P(114)>>}
\@writefile{nav}{\headcommand {\slideentry {1}{0}{112}{114/114}{}{0}}}
\@writefile{nav}{\headcommand {\beamer@framepages {114}{114}}}
\HyPL@Entry{114<</P(115)>>}
\@writefile{nav}{\headcommand {\slideentry {1}{0}{113}{115/115}{}{0}}}
\@writefile{nav}{\headcommand {\beamer@framepages {115}{115}}}
\HyPL@Entry{115<</P(116)>>}
\@writefile{nav}{\headcommand {\slideentry {1}{0}{114}{116/116}{}{0}}}
\@writefile{nav}{\headcommand {\beamer@framepages {116}{116}}}
\HyPL@Entry{116<</P(117)>>}
\@writefile{nav}{\headcommand {\slideentry {1}{0}{115}{117/117}{}{0}}}
\@writefile{nav}{\headcommand {\beamer@framepages {117}{117}}}
\HyPL@Entry{117<</P(118)>>}
\@writefile{nav}{\headcommand {\slideentry {1}{0}{116}{118/118}{}{0}}}
\@writefile{nav}{\headcommand {\beamer@framepages {118}{118}}}
\HyPL@Entry{118<</P(119)>>}
\@writefile{nav}{\headcommand {\slideentry {1}{0}{117}{119/119}{}{0}}}
\@writefile{nav}{\headcommand {\beamer@framepages {119}{119}}}
\HyPL@Entry{119<</P(120)>>}
\@writefile{nav}{\headcommand {\slideentry {1}{0}{118}{120/120}{}{0}}}
\@writefile{nav}{\headcommand {\beamer@framepages {120}{120}}}
\HyPL@Entry{120<</P(121)>>}
\@writefile{nav}{\headcommand {\slideentry {1}{0}{119}{121/121}{}{0}}}
\@writefile{nav}{\headcommand {\beamer@framepages {121}{121}}}
\HyPL@Entry{121<</P(122)>>}
\@writefile{nav}{\headcommand {\slideentry {1}{0}{120}{122/122}{}{0}}}
\@writefile{nav}{\headcommand {\beamer@framepages {122}{122}}}
\HyPL@Entry{122<</P(123)>>}
\@writefile{nav}{\headcommand {\slideentry {1}{0}{121}{123/123}{}{0}}}
\@writefile{nav}{\headcommand {\beamer@framepages {123}{123}}}
\HyPL@Entry{123<</P(124)>>}
\@writefile{nav}{\headcommand {\slideentry {1}{0}{122}{124/124}{}{0}}}
\@writefile{nav}{\headcommand {\beamer@framepages {124}{124}}}
\HyPL@Entry{124<</P(125)>>}
\@writefile{nav}{\headcommand {\slideentry {1}{0}{123}{125/125}{}{0}}}
\@writefile{nav}{\headcommand {\beamer@framepages {125}{125}}}
\HyPL@Entry{125<</P(126)>>}
\@writefile{nav}{\headcommand {\slideentry {1}{0}{124}{126/126}{}{0}}}
\@writefile{nav}{\headcommand {\beamer@framepages {126}{126}}}
\HyPL@Entry{126<</P(127)>>}
\@writefile{nav}{\headcommand {\slideentry {1}{0}{125}{127/127}{}{0}}}
\@writefile{nav}{\headcommand {\beamer@framepages {127}{127}}}
\HyPL@Entry{127<</P(128)>>}
\@writefile{nav}{\headcommand {\slideentry {1}{0}{126}{128/128}{}{0}}}
\@writefile{nav}{\headcommand {\beamer@framepages {128}{128}}}
\HyPL@Entry{128<</P(129)>>}
\@writefile{nav}{\headcommand {\slideentry {1}{0}{127}{129/129}{}{0}}}
\@writefile{nav}{\headcommand {\beamer@framepages {129}{129}}}
\HyPL@Entry{129<</P(130)>>}
\@writefile{nav}{\headcommand {\slideentry {1}{0}{128}{130/130}{}{0}}}
\@writefile{nav}{\headcommand {\beamer@framepages {130}{130}}}
\HyPL@Entry{130<</P(131)>>}
\@writefile{nav}{\headcommand {\slideentry {1}{0}{129}{131/131}{}{0}}}
\@writefile{nav}{\headcommand {\beamer@framepages {131}{131}}}
\HyPL@Entry{131<</P(132)>>}
\@writefile{nav}{\headcommand {\slideentry {1}{0}{130}{132/132}{}{0}}}
\@writefile{nav}{\headcommand {\beamer@framepages {132}{132}}}
\HyPL@Entry{132<</P(133)>>}
\@writefile{nav}{\headcommand {\slideentry {1}{0}{131}{133/133}{}{0}}}
\@writefile{nav}{\headcommand {\beamer@framepages {133}{133}}}
\HyPL@Entry{133<</P(134)>>}
\@writefile{nav}{\headcommand {\slideentry {1}{0}{132}{134/134}{}{0}}}
\@writefile{nav}{\headcommand {\beamer@framepages {134}{134}}}
\HyPL@Entry{134<</P(135)>>}
\@writefile{nav}{\headcommand {\slideentry {1}{0}{133}{135/135}{}{0}}}
\@writefile{nav}{\headcommand {\beamer@framepages {135}{135}}}
\HyPL@Entry{135<</P(136)>>}
\@writefile{nav}{\headcommand {\slideentry {1}{0}{134}{136/136}{}{0}}}
\@writefile{nav}{\headcommand {\beamer@framepages {136}{136}}}
\HyPL@Entry{136<</P(137)>>}
\@writefile{nav}{\headcommand {\slideentry {1}{0}{135}{137/137}{}{0}}}
\@writefile{nav}{\headcommand {\beamer@framepages {137}{137}}}
\HyPL@Entry{137<</P(138)>>}
\@writefile{nav}{\headcommand {\slideentry {1}{0}{136}{138/138}{}{0}}}
\@writefile{nav}{\headcommand {\beamer@framepages {138}{138}}}
\@writefile{nav}{\headcommand {\beamer@partpages {1}{138}}}
\@writefile{nav}{\headcommand {\beamer@subsectionpages {3}{138}}}
\@writefile{nav}{\headcommand {\beamer@sectionpages {3}{138}}}
\@writefile{nav}{\headcommand {\beamer@documentpages {138}}}
\@writefile{nav}{\headcommand {\gdef \inserttotalframenumber {138}}}
