\relax 
\providecommand\hyper@newdestlabel[2]{}
\providecommand\HyperFirstAtBeginDocument{\AtBeginDocument}
\HyperFirstAtBeginDocument{\ifx\hyper@anchor\@undefined
\global\let\oldcontentsline\contentsline
\gdef\contentsline#1#2#3#4{\oldcontentsline{#1}{#2}{#3}}
\global\let\oldnewlabel\newlabel
\gdef\newlabel#1#2{\newlabelxx{#1}#2}
\gdef\newlabelxx#1#2#3#4#5#6{\oldnewlabel{#1}{{#2}{#3}}}
\AtEndDocument{\ifx\hyper@anchor\@undefined
\let\contentsline\oldcontentsline
\let\newlabel\oldnewlabel
\fi}
\fi}
\global\let\hyper@last\relax 
\gdef\HyperFirstAtBeginDocument#1{#1}
\providecommand*\HyPL@Entry[1]{}
\providecommand\babel@aux[2]{}
\@nameuse{bbl@beforestart}
\abx@aux@refcontext{nty/global//global/global}
\HyPL@Entry{0<</P(\376\377\0001)>>}
\babel@aux{english}{}
\@writefile{nav}{\headcommand {\slideentry {0}{0}{1}{1/1}{}{0}}}
\@writefile{nav}{\headcommand {\beamer@framepages {1}{1}}}
\HyPL@Entry{1<</P(\376\377\0002)>>}
\@writefile{toc}{\beamer@sectionintoc {1}{许可证制度}{2}{0}{1}}
\@writefile{nav}{\headcommand {\beamer@sectionpages {1}{1}}}
\@writefile{nav}{\headcommand {\beamer@subsectionpages {1}{1}}}
\@writefile{nav}{\headcommand {\sectionentry {1}{许可证制度}{2}{许可证制度}{0}}}
\@writefile{nav}{\headcommand {\slideentry {1}{0}{1}{2/2}{}{0}}}
\@writefile{nav}{\headcommand {\beamer@framepages {2}{2}}}
\HyPL@Entry{2<</P(\376\377\0003)>>}
\newlabel{sec:许可证制度}{{1}{3}{许可证制度}{Doc-Start}{}}
\@writefile{snm}{\beamer@slide {sec:许可证制度}{3}}
\@writefile{nav}{\headcommand {\slideentry {1}{0}{2}{3/3}{}{0}}}
\@writefile{nav}{\headcommand {\beamer@framepages {3}{3}}}
\HyPL@Entry{3<</P(\376\377\0004)>>}
\@writefile{nav}{\headcommand {\slideentry {1}{0}{3}{4/4}{}{0}}}
\@writefile{nav}{\headcommand {\beamer@framepages {4}{4}}}
\HyPL@Entry{4<</P(\376\377\0005)>>}
\@writefile{nav}{\headcommand {\slideentry {1}{0}{4}{5/5}{}{0}}}
\@writefile{nav}{\headcommand {\beamer@framepages {5}{5}}}
\HyPL@Entry{5<</P(\376\377\0006)>>}
\@writefile{nav}{\headcommand {\slideentry {1}{0}{5}{6/6}{}{0}}}
\@writefile{nav}{\headcommand {\beamer@framepages {6}{6}}}
\HyPL@Entry{6<</P(\376\377\0007)>>}
\@writefile{nav}{\headcommand {\slideentry {1}{0}{6}{7/7}{}{0}}}
\@writefile{nav}{\headcommand {\beamer@framepages {7}{7}}}
\HyPL@Entry{7<</P(\376\377\0008)>>}
\@writefile{nav}{\headcommand {\slideentry {1}{0}{7}{8/8}{}{0}}}
\@writefile{nav}{\headcommand {\beamer@framepages {8}{8}}}
\HyPL@Entry{8<</P(\376\377\0009)>>}
\@writefile{nav}{\headcommand {\slideentry {1}{0}{8}{9/9}{}{0}}}
\@writefile{nav}{\headcommand {\beamer@framepages {9}{9}}}
\HyPL@Entry{9<</P(\376\377\0001\0000)>>}
\@writefile{nav}{\headcommand {\slideentry {1}{0}{9}{10/10}{}{0}}}
\@writefile{nav}{\headcommand {\beamer@framepages {10}{10}}}
\HyPL@Entry{10<</P(\376\377\0001\0001)>>}
\@writefile{nav}{\headcommand {\slideentry {1}{0}{10}{11/11}{}{0}}}
\@writefile{nav}{\headcommand {\beamer@framepages {11}{11}}}
\HyPL@Entry{11<</P(\376\377\0001\0002)>>}
\@writefile{nav}{\headcommand {\slideentry {1}{0}{11}{12/12}{}{0}}}
\@writefile{nav}{\headcommand {\beamer@framepages {12}{12}}}
\HyPL@Entry{12<</P(\376\377\0001\0003)>>}
\@writefile{nav}{\headcommand {\slideentry {1}{0}{12}{13/13}{}{0}}}
\@writefile{nav}{\headcommand {\beamer@framepages {13}{13}}}
\HyPL@Entry{13<</P(\376\377\0001\0004)>>}
\@writefile{nav}{\headcommand {\slideentry {1}{0}{13}{14/14}{}{0}}}
\@writefile{nav}{\headcommand {\beamer@framepages {14}{14}}}
\HyPL@Entry{14<</P(\376\377\0001\0005)>>}
\@writefile{toc}{\beamer@sectionintoc {2}{许可证案例}{15}{0}{2}}
\@writefile{nav}{\headcommand {\beamer@sectionpages {2}{14}}}
\@writefile{nav}{\headcommand {\beamer@subsectionpages {2}{14}}}
\@writefile{nav}{\headcommand {\sectionentry {2}{许可证案例}{15}{许可证案例}{0}}}
\@writefile{nav}{\headcommand {\slideentry {2}{0}{1}{15/15}{}{0}}}
\@writefile{nav}{\headcommand {\beamer@framepages {15}{15}}}
\HyPL@Entry{15<</P(\376\377\0001\0006)>>}
\newlabel{sec:许可证案例}{{2}{16}{许可证案例}{Doc-Start}{}}
\@writefile{snm}{\beamer@slide {sec:许可证案例}{16}}
\@writefile{nav}{\headcommand {\slideentry {2}{0}{2}{16/16}{}{0}}}
\@writefile{nav}{\headcommand {\beamer@framepages {16}{16}}}
\HyPL@Entry{16<</P(\376\377\0001\0007)>>}
\@writefile{nav}{\headcommand {\slideentry {2}{0}{3}{17/17}{}{0}}}
\@writefile{nav}{\headcommand {\beamer@framepages {17}{17}}}
\HyPL@Entry{17<</P(\376\377\0001\0008)>>}
\@writefile{nav}{\headcommand {\slideentry {2}{0}{4}{18/18}{}{0}}}
\@writefile{nav}{\headcommand {\beamer@framepages {18}{18}}}
\HyPL@Entry{18<</P(\376\377\0001\0009)>>}
\@writefile{nav}{\headcommand {\slideentry {2}{0}{5}{19/19}{}{0}}}
\@writefile{nav}{\headcommand {\beamer@framepages {19}{19}}}
\HyPL@Entry{19<</P(\376\377\0002\0000)>>}
\@writefile{nav}{\headcommand {\slideentry {2}{0}{6}{20/20}{}{0}}}
\@writefile{nav}{\headcommand {\beamer@framepages {20}{20}}}
\HyPL@Entry{20<</P(\376\377\0002\0001)>>}
\@writefile{nav}{\headcommand {\slideentry {2}{0}{7}{21/22}{}{0}}}
\@writefile{nav}{\headcommand {\beamer@framepages {21}{22}}}
\HyPL@Entry{22<</P(\376\377\0002\0002)>>}
\@writefile{nav}{\headcommand {\slideentry {2}{0}{8}{23/23}{}{0}}}
\@writefile{nav}{\headcommand {\beamer@framepages {23}{23}}}
\HyPL@Entry{23<</P(\376\377\0002\0003)>>}
\@writefile{nav}{\headcommand {\slideentry {2}{0}{9}{24/24}{}{0}}}
\@writefile{nav}{\headcommand {\beamer@framepages {24}{24}}}
\HyPL@Entry{24<</P(\376\377\0002\0004)>>}
\@writefile{toc}{\beamer@sectionintoc {3}{开源软件生态系统}{25}{0}{3}}
\@writefile{nav}{\headcommand {\beamer@sectionpages {15}{24}}}
\@writefile{nav}{\headcommand {\beamer@subsectionpages {15}{24}}}
\@writefile{nav}{\headcommand {\sectionentry {3}{开源软件生态系统}{25}{开源软件生态系统}{0}}}
\@writefile{nav}{\headcommand {\slideentry {3}{0}{1}{25/25}{}{0}}}
\@writefile{nav}{\headcommand {\beamer@framepages {25}{25}}}
\HyPL@Entry{25<</P(\376\377\0002\0005)>>}
\newlabel{sec:开源软件生态系统}{{3}{26}{开源软件生态系统}{Doc-Start}{}}
\@writefile{snm}{\beamer@slide {sec:开源软件生态系统}{26}}
\@writefile{nav}{\headcommand {\slideentry {3}{0}{2}{26/26}{}{0}}}
\@writefile{nav}{\headcommand {\beamer@framepages {26}{26}}}
\HyPL@Entry{26<</P(\376\377\0002\0006)>>}
\@writefile{nav}{\headcommand {\slideentry {3}{0}{3}{27/28}{}{0}}}
\@writefile{nav}{\headcommand {\beamer@framepages {27}{28}}}
\HyPL@Entry{28<</P(\376\377\0002\0007)>>}
\@writefile{nav}{\headcommand {\slideentry {3}{0}{4}{29/29}{}{0}}}
\@writefile{nav}{\headcommand {\beamer@framepages {29}{29}}}
\HyPL@Entry{29<</P(\376\377\0002\0008)>>}
\@writefile{nav}{\headcommand {\slideentry {3}{0}{5}{30/30}{}{0}}}
\@writefile{nav}{\headcommand {\beamer@framepages {30}{30}}}
\HyPL@Entry{30<</P(\376\377\0002\0009)>>}
\@writefile{nav}{\headcommand {\slideentry {3}{0}{6}{31/31}{}{0}}}
\@writefile{nav}{\headcommand {\beamer@framepages {31}{31}}}
\HyPL@Entry{31<</P(\376\377\0003\0000)>>}
\@writefile{nav}{\headcommand {\slideentry {3}{0}{7}{32/32}{}{0}}}
\@writefile{nav}{\headcommand {\beamer@framepages {32}{32}}}
\HyPL@Entry{32<</P(\376\377\0003\0001)>>}
\@writefile{nav}{\headcommand {\slideentry {3}{0}{8}{33/33}{}{0}}}
\@writefile{nav}{\headcommand {\beamer@framepages {33}{33}}}
\HyPL@Entry{33<</P(\376\377\0003\0002)>>}
\@writefile{nav}{\headcommand {\slideentry {3}{0}{9}{34/34}{}{0}}}
\@writefile{nav}{\headcommand {\beamer@framepages {34}{34}}}
\HyPL@Entry{34<</P(\376\377\0003\0003)>>}
\@writefile{nav}{\headcommand {\slideentry {3}{0}{10}{35/35}{}{0}}}
\@writefile{nav}{\headcommand {\beamer@framepages {35}{35}}}
\HyPL@Entry{35<</P(\376\377\0003\0004)>>}
\@writefile{nav}{\headcommand {\slideentry {3}{0}{11}{36/36}{}{0}}}
\@writefile{nav}{\headcommand {\beamer@framepages {36}{36}}}
\HyPL@Entry{36<</P(\376\377\0003\0005)>>}
\@writefile{nav}{\headcommand {\slideentry {3}{0}{12}{37/37}{}{0}}}
\@writefile{nav}{\headcommand {\beamer@framepages {37}{37}}}
\HyPL@Entry{37<</P(\376\377\0003\0006)>>}
\@writefile{nav}{\headcommand {\slideentry {3}{0}{13}{38/38}{}{0}}}
\@writefile{nav}{\headcommand {\beamer@framepages {38}{38}}}
\HyPL@Entry{38<</P(\376\377\0003\0007)>>}
\@writefile{nav}{\headcommand {\slideentry {3}{0}{14}{39/39}{}{0}}}
\@writefile{nav}{\headcommand {\beamer@framepages {39}{39}}}
\HyPL@Entry{39<</P(\376\377\0003\0008)>>}
\@writefile{nav}{\headcommand {\slideentry {3}{0}{15}{40/40}{}{0}}}
\@writefile{nav}{\headcommand {\beamer@framepages {40}{40}}}
\HyPL@Entry{40<</P(\376\377\0003\0009)>>}
\@writefile{nav}{\headcommand {\slideentry {3}{0}{16}{41/41}{}{0}}}
\@writefile{nav}{\headcommand {\beamer@framepages {41}{41}}}
\HyPL@Entry{41<</P(\376\377\0004\0000)>>}
\@writefile{nav}{\headcommand {\slideentry {3}{0}{17}{42/42}{}{0}}}
\@writefile{nav}{\headcommand {\beamer@framepages {42}{42}}}
\HyPL@Entry{42<</P(\376\377\0004\0001)>>}
\@writefile{nav}{\headcommand {\slideentry {3}{0}{18}{43/43}{}{0}}}
\@writefile{nav}{\headcommand {\beamer@framepages {43}{43}}}
\HyPL@Entry{43<</P(\376\377\0004\0002)>>}
\@writefile{nav}{\headcommand {\slideentry {3}{0}{19}{44/44}{}{0}}}
\@writefile{nav}{\headcommand {\beamer@framepages {44}{44}}}
\HyPL@Entry{44<</P(\376\377\0004\0003)>>}
\@writefile{nav}{\headcommand {\slideentry {3}{0}{20}{45/45}{}{0}}}
\@writefile{nav}{\headcommand {\beamer@framepages {45}{45}}}
\HyPL@Entry{45<</P(\376\377\0004\0004)>>}
\@writefile{nav}{\headcommand {\slideentry {3}{0}{21}{46/46}{}{0}}}
\@writefile{nav}{\headcommand {\beamer@framepages {46}{46}}}
\HyPL@Entry{46<</P(\376\377\0004\0005)>>}
\@writefile{nav}{\headcommand {\slideentry {3}{0}{22}{47/47}{}{0}}}
\@writefile{nav}{\headcommand {\beamer@framepages {47}{47}}}
\HyPL@Entry{47<</P(\376\377\0004\0006)>>}
\@writefile{nav}{\headcommand {\slideentry {3}{0}{23}{48/48}{}{0}}}
\@writefile{nav}{\headcommand {\beamer@framepages {48}{48}}}
\HyPL@Entry{48<</P(\376\377\0004\0007)>>}
\@writefile{nav}{\headcommand {\slideentry {3}{0}{24}{49/49}{}{0}}}
\@writefile{nav}{\headcommand {\beamer@framepages {49}{49}}}
\HyPL@Entry{49<</P(\376\377\0004\0008)>>}
\@writefile{nav}{\headcommand {\slideentry {3}{0}{25}{50/50}{}{0}}}
\@writefile{nav}{\headcommand {\beamer@framepages {50}{50}}}
\HyPL@Entry{50<</P(\376\377\0004\0009)>>}
\@writefile{nav}{\headcommand {\slideentry {3}{0}{26}{51/51}{}{0}}}
\@writefile{nav}{\headcommand {\beamer@framepages {51}{51}}}
\@writefile{nav}{\headcommand {\beamer@partpages {1}{51}}}
\@writefile{nav}{\headcommand {\beamer@subsectionpages {25}{51}}}
\@writefile{nav}{\headcommand {\beamer@sectionpages {25}{51}}}
\@writefile{nav}{\headcommand {\beamer@documentpages {51}}}
\@writefile{nav}{\headcommand {\gdef \inserttotalframenumber {49}}}
\abx@aux@read@bbl@mdfivesum{D41D8CD98F00B204E9800998ECF8427E}
\gdef \@abspage@last{51}
