\relax 
\providecommand\hyper@newdestlabel[2]{}
\providecommand\HyperFirstAtBeginDocument{\AtBeginDocument}
\HyperFirstAtBeginDocument{\ifx\hyper@anchor\@undefined
\global\let\oldcontentsline\contentsline
\gdef\contentsline#1#2#3#4{\oldcontentsline{#1}{#2}{#3}}
\global\let\oldnewlabel\newlabel
\gdef\newlabel#1#2{\newlabelxx{#1}#2}
\gdef\newlabelxx#1#2#3#4#5#6{\oldnewlabel{#1}{{#2}{#3}}}
\AtEndDocument{\ifx\hyper@anchor\@undefined
\let\contentsline\oldcontentsline
\let\newlabel\oldnewlabel
\fi}
\fi}
\global\let\hyper@last\relax 
\gdef\HyperFirstAtBeginDocument#1{#1}
\providecommand*\HyPL@Entry[1]{}
\providecommand\babel@aux[2]{}
\@nameuse{bbl@beforestart}
\HyPL@Entry{0<</P(\376\377\0001)>>}
\babel@aux{english}{}
\@writefile{nav}{\headcommand {\slideentry {0}{0}{1}{1/1}{}{0}}}
\@writefile{nav}{\headcommand {\beamer@framepages {1}{1}}}
\HyPL@Entry{1<</P(\376\377\0002)>>}
\@writefile{nav}{\headcommand {\slideentry {0}{0}{2}{2/2}{}{0}}}
\@writefile{nav}{\headcommand {\beamer@framepages {2}{2}}}
\HyPL@Entry{2<</P(\376\377\0003)>>}
\@writefile{toc}{\beamer@sectionintoc {1}{A Minimal Application}{3}{0}{1}}
\@writefile{nav}{\headcommand {\beamer@sectionpages {1}{2}}}
\@writefile{nav}{\headcommand {\beamer@subsectionpages {1}{2}}}
\@writefile{nav}{\headcommand {\sectionentry {1}{A Minimal Application}{3}{A Minimal Application}{0}}}
\@writefile{nav}{\headcommand {\slideentry {1}{0}{1}{3/3}{}{0}}}
\@writefile{nav}{\headcommand {\beamer@framepages {3}{3}}}
\HyPL@Entry{3<</P(\376\377\0004)>>}
\@writefile{nav}{\headcommand {\slideentry {1}{0}{2}{4/4}{}{0}}}
\@writefile{nav}{\headcommand {\beamer@framepages {4}{4}}}
\HyPL@Entry{4<</P(\376\377\0005)>>}
\@writefile{nav}{\headcommand {\slideentry {1}{0}{3}{5/5}{}{0}}}
\@writefile{nav}{\headcommand {\beamer@framepages {5}{5}}}
\HyPL@Entry{5<</P(\376\377\0006)>>}
\@writefile{nav}{\headcommand {\slideentry {1}{0}{4}{6/6}{}{0}}}
\@writefile{nav}{\headcommand {\beamer@framepages {6}{6}}}
\HyPL@Entry{6<</P(\376\377\0007)>>}
\@writefile{nav}{\headcommand {\slideentry {1}{0}{5}{7/7}{}{0}}}
\@writefile{nav}{\headcommand {\beamer@framepages {7}{7}}}
\HyPL@Entry{7<</P(\376\377\0008)>>}
\@writefile{nav}{\headcommand {\slideentry {1}{0}{6}{8/8}{}{0}}}
\@writefile{nav}{\headcommand {\beamer@framepages {8}{8}}}
\HyPL@Entry{8<</P(\376\377\0009)>>}
\@writefile{nav}{\headcommand {\slideentry {1}{0}{7}{9/9}{}{0}}}
\@writefile{nav}{\headcommand {\beamer@framepages {9}{9}}}
\HyPL@Entry{9<</P(\376\377\0001\0000)>>}
\@writefile{toc}{\beamer@sectionintoc {2}{Routing}{10}{0}{2}}
\@writefile{nav}{\headcommand {\beamer@sectionpages {3}{9}}}
\@writefile{nav}{\headcommand {\beamer@subsectionpages {3}{9}}}
\@writefile{nav}{\headcommand {\sectionentry {2}{Routing}{10}{Routing}{0}}}
\@writefile{nav}{\headcommand {\slideentry {2}{0}{1}{10/10}{}{0}}}
\@writefile{nav}{\headcommand {\beamer@framepages {10}{10}}}
\HyPL@Entry{10<</P(\376\377\0001\0001)>>}
\@writefile{nav}{\headcommand {\slideentry {2}{0}{2}{11/11}{}{0}}}
\@writefile{nav}{\headcommand {\beamer@framepages {11}{11}}}
\HyPL@Entry{11<</P(\376\377\0001\0002)>>}
\@writefile{nav}{\headcommand {\slideentry {2}{0}{3}{12/12}{}{0}}}
\@writefile{nav}{\headcommand {\beamer@framepages {12}{12}}}
\HyPL@Entry{12<</P(\376\377\0001\0003)>>}
\@writefile{nav}{\headcommand {\slideentry {2}{0}{4}{13/13}{}{0}}}
\@writefile{nav}{\headcommand {\beamer@framepages {13}{13}}}
\HyPL@Entry{13<</P(\376\377\0001\0004)>>}
\@writefile{nav}{\headcommand {\slideentry {2}{0}{5}{14/14}{}{0}}}
\@writefile{nav}{\headcommand {\beamer@framepages {14}{14}}}
\HyPL@Entry{14<</P(\376\377\0001\0005)>>}
\@writefile{nav}{\headcommand {\slideentry {2}{0}{6}{15/15}{}{0}}}
\@writefile{nav}{\headcommand {\beamer@framepages {15}{15}}}
\HyPL@Entry{15<</P(\376\377\0001\0006)>>}
\@writefile{toc}{\beamer@sectionintoc {3}{Rendering Templates}{16}{0}{3}}
\@writefile{nav}{\headcommand {\beamer@sectionpages {10}{15}}}
\@writefile{nav}{\headcommand {\beamer@subsectionpages {10}{15}}}
\@writefile{nav}{\headcommand {\sectionentry {3}{Rendering Templates}{16}{Rendering Templates}{0}}}
\@writefile{nav}{\headcommand {\slideentry {3}{0}{1}{16/16}{}{0}}}
\@writefile{nav}{\headcommand {\beamer@framepages {16}{16}}}
\HyPL@Entry{16<</P(\376\377\0001\0007)>>}
\@writefile{nav}{\headcommand {\slideentry {3}{0}{2}{17/17}{}{0}}}
\@writefile{nav}{\headcommand {\beamer@framepages {17}{17}}}
\HyPL@Entry{17<</P(\376\377\0001\0008)>>}
\@writefile{nav}{\headcommand {\slideentry {3}{0}{3}{18/18}{}{0}}}
\@writefile{nav}{\headcommand {\beamer@framepages {18}{18}}}
\HyPL@Entry{18<</P(\376\377\0001\0009)>>}
\@writefile{nav}{\headcommand {\slideentry {3}{0}{4}{19/19}{}{0}}}
\@writefile{nav}{\headcommand {\beamer@framepages {19}{19}}}
\HyPL@Entry{19<</P(\376\377\0002\0000)>>}
\@writefile{nav}{\headcommand {\slideentry {3}{0}{5}{20/20}{}{0}}}
\@writefile{nav}{\headcommand {\beamer@framepages {20}{20}}}
\HyPL@Entry{20<</P(\376\377\0002\0001)>>}
\@writefile{nav}{\headcommand {\slideentry {3}{0}{6}{21/21}{}{0}}}
\@writefile{nav}{\headcommand {\beamer@framepages {21}{21}}}
\HyPL@Entry{21<</P(\376\377\0002\0002)>>}
\@writefile{nav}{\headcommand {\slideentry {3}{0}{7}{22/22}{}{0}}}
\@writefile{nav}{\headcommand {\beamer@framepages {22}{22}}}
\HyPL@Entry{22<</P(\376\377\0002\0003)>>}
\@writefile{nav}{\headcommand {\slideentry {3}{0}{8}{23/23}{}{0}}}
\@writefile{nav}{\headcommand {\beamer@framepages {23}{23}}}
\HyPL@Entry{23<</P(\376\377\0002\0004)>>}
\@writefile{toc}{\beamer@sectionintoc {4}{Accessing Request Data}{24}{0}{4}}
\@writefile{nav}{\headcommand {\beamer@sectionpages {16}{23}}}
\@writefile{nav}{\headcommand {\beamer@subsectionpages {16}{23}}}
\@writefile{nav}{\headcommand {\sectionentry {4}{Accessing Request Data}{24}{Accessing Request Data}{0}}}
\@writefile{nav}{\headcommand {\slideentry {4}{0}{1}{24/24}{}{0}}}
\@writefile{nav}{\headcommand {\beamer@framepages {24}{24}}}
\HyPL@Entry{24<</P(\376\377\0002\0005)>>}
\@writefile{nav}{\headcommand {\slideentry {4}{0}{2}{25/25}{}{0}}}
\@writefile{nav}{\headcommand {\beamer@framepages {25}{25}}}
\HyPL@Entry{25<</P(\376\377\0002\0006)>>}
\@writefile{nav}{\headcommand {\slideentry {4}{0}{3}{26/26}{}{0}}}
\@writefile{nav}{\headcommand {\beamer@framepages {26}{26}}}
\HyPL@Entry{26<</P(\376\377\0002\0007)>>}
\@writefile{toc}{\beamer@sectionintoc {5}{Redirects and Errors}{27}{0}{5}}
\@writefile{nav}{\headcommand {\beamer@sectionpages {24}{26}}}
\@writefile{nav}{\headcommand {\beamer@subsectionpages {24}{26}}}
\@writefile{nav}{\headcommand {\sectionentry {5}{Redirects and Errors}{27}{Redirects and Errors}{0}}}
\@writefile{nav}{\headcommand {\slideentry {5}{0}{1}{27/27}{}{0}}}
\@writefile{nav}{\headcommand {\beamer@framepages {27}{27}}}
\HyPL@Entry{27<</P(\376\377\0002\0008)>>}
\@writefile{nav}{\headcommand {\slideentry {5}{0}{2}{28/28}{}{0}}}
\@writefile{nav}{\headcommand {\beamer@framepages {28}{28}}}
\HyPL@Entry{28<</P(\376\377\0002\0009)>>}
\@writefile{nav}{\headcommand {\slideentry {5}{0}{3}{29/29}{}{0}}}
\@writefile{nav}{\headcommand {\beamer@framepages {29}{29}}}
\HyPL@Entry{29<</P(\376\377\0003\0000)>>}
\@writefile{nav}{\headcommand {\slideentry {5}{0}{4}{30/30}{}{0}}}
\@writefile{nav}{\headcommand {\beamer@framepages {30}{30}}}
\HyPL@Entry{30<</P(\376\377\0003\0001)>>}
\@writefile{toc}{\beamer@sectionintoc {6}{Sessions}{31}{0}{6}}
\@writefile{nav}{\headcommand {\beamer@sectionpages {27}{30}}}
\@writefile{nav}{\headcommand {\beamer@subsectionpages {27}{30}}}
\@writefile{nav}{\headcommand {\sectionentry {6}{Sessions}{31}{Sessions}{0}}}
\@writefile{nav}{\headcommand {\slideentry {6}{0}{1}{31/31}{}{0}}}
\@writefile{nav}{\headcommand {\beamer@framepages {31}{31}}}
\HyPL@Entry{31<</P(\376\377\0003\0002)>>}
\@writefile{nav}{\headcommand {\slideentry {6}{0}{2}{32/32}{}{0}}}
\@writefile{nav}{\headcommand {\beamer@framepages {32}{32}}}
\HyPL@Entry{32<</P(\376\377\0003\0003)>>}
\@writefile{nav}{\headcommand {\slideentry {6}{0}{3}{33/33}{}{0}}}
\@writefile{nav}{\headcommand {\beamer@framepages {33}{33}}}
\HyPL@Entry{33<</P(\376\377\0003\0004)>>}
\@writefile{nav}{\headcommand {\slideentry {6}{0}{4}{34/34}{}{0}}}
\@writefile{nav}{\headcommand {\beamer@framepages {34}{34}}}
\HyPL@Entry{34<</P(\376\377\0003\0005)>>}
\@writefile{toc}{\beamer@sectionintoc {7}{A Demo}{35}{0}{7}}
\@writefile{nav}{\headcommand {\beamer@sectionpages {31}{34}}}
\@writefile{nav}{\headcommand {\beamer@subsectionpages {31}{34}}}
\@writefile{nav}{\headcommand {\sectionentry {7}{A Demo}{35}{A Demo}{0}}}
\@writefile{nav}{\headcommand {\slideentry {7}{0}{1}{35/35}{}{0}}}
\@writefile{nav}{\headcommand {\beamer@framepages {35}{35}}}
\HyPL@Entry{35<</P(\376\377\0003\0006)>>}
\newlabel{sec:A Demo}{{7}{36}{A Demo}{Doc-Start}{}}
\@writefile{snm}{\beamer@slide {sec:A Demo}{36}}
\@writefile{nav}{\headcommand {\slideentry {7}{0}{2}{36/36}{}{0}}}
\@writefile{nav}{\headcommand {\beamer@framepages {36}{36}}}
\HyPL@Entry{36<</P(\376\377\0003\0007)>>}
\@writefile{nav}{\headcommand {\slideentry {7}{0}{3}{37/37}{}{0}}}
\@writefile{nav}{\headcommand {\beamer@framepages {37}{37}}}
\@writefile{nav}{\headcommand {\beamer@partpages {1}{37}}}
\@writefile{nav}{\headcommand {\beamer@subsectionpages {35}{37}}}
\@writefile{nav}{\headcommand {\beamer@sectionpages {35}{37}}}
\@writefile{nav}{\headcommand {\beamer@documentpages {37}}}
\@writefile{nav}{\headcommand {\gdef \inserttotalframenumber {37}}}
\gdef \@abspage@last{37}
