\BOOKMARK [2][]{Outline0.1}{\376\377\000A\000\040\000M\000i\000n\000i\000m\000a\000l\000\040\000A\000p\000p\000l\000i\000c\000a\000t\000i\000o\000n}{}% 1
\BOOKMARK [2][]{Outline0.2}{\376\377\000R\000o\000u\000t\000i\000n\000g}{}% 2
\BOOKMARK [2][]{Outline0.3}{\376\377\000R\000e\000n\000d\000e\000r\000i\000n\000g\000\040\000T\000e\000m\000p\000l\000a\000t\000e\000s}{}% 3
\BOOKMARK [2][]{Outline0.4}{\376\377\000A\000c\000c\000e\000s\000s\000i\000n\000g\000\040\000R\000e\000q\000u\000e\000s\000t\000\040\000D\000a\000t\000a}{}% 4
\BOOKMARK [2][]{Outline0.5}{\376\377\000R\000e\000d\000i\000r\000e\000c\000t\000s\000\040\000a\000n\000d\000\040\000E\000r\000r\000o\000r\000s}{}% 5
\BOOKMARK [2][]{Outline0.6}{\376\377\000S\000e\000s\000s\000i\000o\000n\000s}{}% 6
\BOOKMARK [2][]{Outline0.7}{\376\377\000A\000\040\000D\000e\000m\000o}{}% 7
