\babel@toc {english}{}
\beamer@sectionintoc {1}{MongoDB简介}{2}{0}{1}
\beamer@sectionintoc {2}{MongoDB安装}{7}{0}{2}
\beamer@sectionintoc {3}{MongoDB基本操作}{11}{0}{3}
\beamer@sectionintoc {4}{基于pymongo的数据库连接}{14}{0}{4}
