\relax 
\providecommand\hyper@newdestlabel[2]{}
\providecommand\HyperFirstAtBeginDocument{\AtBeginDocument}
\HyperFirstAtBeginDocument{\ifx\hyper@anchor\@undefined
\global\let\oldcontentsline\contentsline
\gdef\contentsline#1#2#3#4{\oldcontentsline{#1}{#2}{#3}}
\global\let\oldnewlabel\newlabel
\gdef\newlabel#1#2{\newlabelxx{#1}#2}
\gdef\newlabelxx#1#2#3#4#5#6{\oldnewlabel{#1}{{#2}{#3}}}
\AtEndDocument{\ifx\hyper@anchor\@undefined
\let\contentsline\oldcontentsline
\let\newlabel\oldnewlabel
\fi}
\fi}
\global\let\hyper@last\relax 
\gdef\HyperFirstAtBeginDocument#1{#1}
\providecommand*\HyPL@Entry[1]{}
\providecommand\babel@aux[2]{}
\@nameuse{bbl@beforestart}
\abx@aux@refcontext{nty/global//global/global}
\HyPL@Entry{0<</P(\376\377\0001)>>}
\babel@aux{english}{}
\@writefile{nav}{\headcommand {\slideentry {0}{0}{1}{1/1}{}{0}}}
\@writefile{nav}{\headcommand {\beamer@framepages {1}{1}}}
\HyPL@Entry{1<</P(\376\377\0002)>>}
\@writefile{toc}{\beamer@sectionintoc {1}{关于我}{2}{0}{1}}
\@writefile{nav}{\headcommand {\beamer@sectionpages {1}{1}}}
\@writefile{nav}{\headcommand {\beamer@subsectionpages {1}{1}}}
\@writefile{nav}{\headcommand {\sectionentry {1}{关于我}{2}{关于我}{0}}}
\@writefile{nav}{\headcommand {\slideentry {1}{0}{1}{2/2}{}{0}}}
\@writefile{nav}{\headcommand {\beamer@framepages {2}{2}}}
\HyPL@Entry{2<</P(\376\377\0003)>>}
\@writefile{nav}{\headcommand {\slideentry {1}{0}{2}{3/3}{}{0}}}
\@writefile{nav}{\headcommand {\beamer@framepages {3}{3}}}
\HyPL@Entry{3<</P(\376\377\0004)>>}
\@writefile{nav}{\headcommand {\slideentry {1}{0}{3}{4/4}{}{0}}}
\@writefile{nav}{\headcommand {\beamer@framepages {4}{4}}}
\HyPL@Entry{4<</P(\376\377\0005)>>}
\@writefile{nav}{\headcommand {\slideentry {1}{0}{4}{5/5}{}{0}}}
\@writefile{nav}{\headcommand {\beamer@framepages {5}{5}}}
\HyPL@Entry{5<</P(\376\377\0006)>>}
\@writefile{nav}{\headcommand {\slideentry {1}{0}{5}{6/6}{}{0}}}
\@writefile{nav}{\headcommand {\beamer@framepages {6}{6}}}
\HyPL@Entry{6<</P(\376\377\0007)>>}
\@writefile{nav}{\headcommand {\slideentry {1}{0}{6}{7/7}{}{0}}}
\@writefile{nav}{\headcommand {\beamer@framepages {7}{7}}}
\HyPL@Entry{7<</P(\376\377\0008)>>}
\@writefile{nav}{\headcommand {\slideentry {1}{0}{7}{8/9}{}{0}}}
\@writefile{nav}{\headcommand {\beamer@framepages {8}{9}}}
\HyPL@Entry{9<</P(\376\377\0009)>>}
\@writefile{toc}{\beamer@sectionintoc {2}{特色栏目}{10}{0}{2}}
\@writefile{nav}{\headcommand {\beamer@sectionpages {2}{9}}}
\@writefile{nav}{\headcommand {\beamer@subsectionpages {2}{9}}}
\@writefile{nav}{\headcommand {\sectionentry {2}{特色栏目}{10}{特色栏目}{0}}}
\@writefile{nav}{\headcommand {\slideentry {2}{0}{1}{10/10}{}{0}}}
\@writefile{nav}{\headcommand {\beamer@framepages {10}{10}}}
\HyPL@Entry{10<</P(\376\377\0001\0000)>>}
\newlabel{sec:特色栏目}{{2}{11}{特色栏目}{Doc-Start}{}}
\@writefile{snm}{\beamer@slide {sec:特色栏目}{11}}
\@writefile{nav}{\headcommand {\slideentry {2}{0}{2}{11/11}{}{0}}}
\@writefile{nav}{\headcommand {\beamer@framepages {11}{11}}}
\HyPL@Entry{11<</P(\376\377\0001\0001)>>}
\@writefile{nav}{\headcommand {\slideentry {2}{0}{3}{12/12}{}{0}}}
\@writefile{nav}{\headcommand {\beamer@framepages {12}{12}}}
\HyPL@Entry{12<</P(\376\377\0001\0002)>>}
\@writefile{nav}{\headcommand {\slideentry {2}{0}{4}{13/13}{}{0}}}
\@writefile{nav}{\headcommand {\beamer@framepages {13}{13}}}
\HyPL@Entry{13<</P(\376\377\0001\0003)>>}
\@writefile{nav}{\headcommand {\slideentry {2}{0}{5}{14/14}{}{0}}}
\@writefile{nav}{\headcommand {\beamer@framepages {14}{14}}}
\HyPL@Entry{14<</P(\376\377\0001\0004)>>}
\@writefile{toc}{\beamer@sectionintoc {3}{教学内容}{15}{0}{3}}
\@writefile{nav}{\headcommand {\beamer@sectionpages {10}{14}}}
\@writefile{nav}{\headcommand {\beamer@subsectionpages {10}{14}}}
\@writefile{nav}{\headcommand {\sectionentry {3}{教学内容}{15}{教学内容}{0}}}
\@writefile{nav}{\headcommand {\slideentry {3}{0}{1}{15/15}{}{0}}}
\@writefile{nav}{\headcommand {\beamer@framepages {15}{15}}}
\HyPL@Entry{15<</P(\376\377\0001\0005)>>}
\newlabel{sec:教学内容}{{3}{16}{教学内容}{Doc-Start}{}}
\@writefile{snm}{\beamer@slide {sec:教学内容}{16}}
\@writefile{nav}{\headcommand {\slideentry {3}{0}{2}{16/16}{}{0}}}
\@writefile{nav}{\headcommand {\beamer@framepages {16}{16}}}
\HyPL@Entry{16<</P(\376\377\0001\0006)>>}
\@writefile{nav}{\headcommand {\slideentry {3}{0}{3}{17/17}{}{0}}}
\@writefile{nav}{\headcommand {\beamer@framepages {17}{17}}}
\HyPL@Entry{17<</P(\376\377\0001\0007)>>}
\@writefile{nav}{\headcommand {\slideentry {3}{0}{4}{18/18}{}{0}}}
\@writefile{nav}{\headcommand {\beamer@framepages {18}{18}}}
\HyPL@Entry{18<</P(\376\377\0001\0008)>>}
\@writefile{nav}{\headcommand {\slideentry {3}{0}{5}{19/19}{}{0}}}
\@writefile{nav}{\headcommand {\beamer@framepages {19}{19}}}
\HyPL@Entry{19<</P(\376\377\0001\0009)>>}
\@writefile{nav}{\headcommand {\slideentry {3}{0}{6}{20/22}{}{0}}}
\@writefile{nav}{\headcommand {\beamer@framepages {20}{22}}}
\HyPL@Entry{22<</P(\376\377\0002\0000)>>}
\@writefile{toc}{\beamer@sectionintoc {4}{定义}{23}{0}{4}}
\@writefile{nav}{\headcommand {\beamer@sectionpages {15}{22}}}
\@writefile{nav}{\headcommand {\beamer@subsectionpages {15}{22}}}
\@writefile{nav}{\headcommand {\sectionentry {4}{定义}{23}{定义}{0}}}
\@writefile{nav}{\headcommand {\slideentry {4}{0}{1}{23/23}{}{0}}}
\@writefile{nav}{\headcommand {\beamer@framepages {23}{23}}}
\HyPL@Entry{23<</P(\376\377\0002\0001)>>}
\@writefile{nav}{\headcommand {\slideentry {4}{0}{2}{24/24}{}{0}}}
\@writefile{nav}{\headcommand {\beamer@framepages {24}{24}}}
\HyPL@Entry{24<</P(\376\377\0002\0002)>>}
\@writefile{nav}{\headcommand {\slideentry {4}{0}{3}{25/25}{}{0}}}
\@writefile{nav}{\headcommand {\beamer@framepages {25}{25}}}
\abx@aux@cite{0}{Gates1976An}
\abx@aux@segm{0}{0}{Gates1976An}
\HyPL@Entry{25<</P(\376\377\0002\0003)>>}
\@writefile{nav}{\headcommand {\slideentry {4}{0}{4}{26/26}{}{0}}}
\@writefile{nav}{\headcommand {\beamer@framepages {26}{26}}}
\HyPL@Entry{26<</P(\376\377\0002\0004)>>}
\@writefile{nav}{\headcommand {\slideentry {4}{0}{5}{27/27}{}{0}}}
\@writefile{nav}{\headcommand {\beamer@framepages {27}{27}}}
\HyPL@Entry{27<</P(\376\377\0002\0005)>>}
\@writefile{nav}{\headcommand {\slideentry {4}{0}{6}{28/28}{}{0}}}
\@writefile{nav}{\headcommand {\beamer@framepages {28}{28}}}
\HyPL@Entry{28<</P(\376\377\0002\0006)>>}
\@writefile{nav}{\headcommand {\slideentry {4}{0}{7}{29/29}{}{0}}}
\@writefile{nav}{\headcommand {\beamer@framepages {29}{29}}}
\HyPL@Entry{29<</P(\376\377\0002\0007)>>}
\@writefile{nav}{\headcommand {\slideentry {4}{0}{8}{30/30}{}{0}}}
\@writefile{nav}{\headcommand {\beamer@framepages {30}{30}}}
\HyPL@Entry{30<</P(\376\377\0002\0008)>>}
\@writefile{nav}{\headcommand {\slideentry {4}{0}{9}{31/31}{}{0}}}
\@writefile{nav}{\headcommand {\beamer@framepages {31}{31}}}
\HyPL@Entry{31<</P(\376\377\0002\0009)>>}
\@writefile{nav}{\headcommand {\slideentry {4}{0}{10}{32/32}{}{0}}}
\@writefile{nav}{\headcommand {\beamer@framepages {32}{32}}}
\HyPL@Entry{32<</P(\376\377\0003\0000)>>}
\@writefile{nav}{\headcommand {\slideentry {4}{0}{11}{33/33}{}{0}}}
\@writefile{nav}{\headcommand {\beamer@framepages {33}{33}}}
\HyPL@Entry{33<</P(\376\377\0003\0001)>>}
\@writefile{nav}{\headcommand {\slideentry {4}{0}{12}{34/34}{}{0}}}
\@writefile{nav}{\headcommand {\beamer@framepages {34}{34}}}
\HyPL@Entry{34<</P(\376\377\0003\0002)>>}
\@writefile{nav}{\headcommand {\slideentry {4}{0}{13}{35/35}{}{0}}}
\@writefile{nav}{\headcommand {\beamer@framepages {35}{35}}}
\HyPL@Entry{35<</P(\376\377\0003\0003)>>}
\@writefile{nav}{\headcommand {\slideentry {4}{0}{14}{36/36}{}{0}}}
\@writefile{nav}{\headcommand {\beamer@framepages {36}{36}}}
\HyPL@Entry{36<</P(\376\377\0003\0004)>>}
\@writefile{nav}{\headcommand {\slideentry {4}{0}{15}{37/37}{}{0}}}
\@writefile{nav}{\headcommand {\beamer@framepages {37}{37}}}
\HyPL@Entry{37<</P(\376\377\0003\0005)>>}
\@writefile{nav}{\headcommand {\slideentry {4}{0}{16}{38/38}{}{0}}}
\@writefile{nav}{\headcommand {\beamer@framepages {38}{38}}}
\HyPL@Entry{38<</P(\376\377\0003\0006)>>}
\@writefile{nav}{\headcommand {\slideentry {4}{0}{17}{39/39}{}{0}}}
\@writefile{nav}{\headcommand {\beamer@framepages {39}{39}}}
\@writefile{nav}{\headcommand {\beamer@partpages {1}{39}}}
\@writefile{nav}{\headcommand {\beamer@subsectionpages {23}{39}}}
\@writefile{nav}{\headcommand {\beamer@sectionpages {23}{39}}}
\@writefile{nav}{\headcommand {\beamer@documentpages {39}}}
\@writefile{nav}{\headcommand {\gdef \inserttotalframenumber {36}}}
\abx@aux@read@bbl@mdfivesum{48DFEF8CBCA4F34AD429896C8DA09BFB}
\gdef \@abspage@last{39}
