\relax 
\providecommand\hyper@newdestlabel[2]{}
\providecommand\HyperFirstAtBeginDocument{\AtBeginDocument}
\HyperFirstAtBeginDocument{\ifx\hyper@anchor\@undefined
\global\let\oldcontentsline\contentsline
\gdef\contentsline#1#2#3#4{\oldcontentsline{#1}{#2}{#3}}
\global\let\oldnewlabel\newlabel
\gdef\newlabel#1#2{\newlabelxx{#1}#2}
\gdef\newlabelxx#1#2#3#4#5#6{\oldnewlabel{#1}{{#2}{#3}}}
\AtEndDocument{\ifx\hyper@anchor\@undefined
\let\contentsline\oldcontentsline
\let\newlabel\oldnewlabel
\fi}
\fi}
\global\let\hyper@last\relax 
\gdef\HyperFirstAtBeginDocument#1{#1}
\providecommand*\HyPL@Entry[1]{}
\HyPL@Entry{0<</P(1)>>}
\babel@aux{english}{}
\@writefile{nav}{\headcommand {\slideentry {0}{0}{1}{1/1}{}{0}}}
\@writefile{nav}{\headcommand {\beamer@framepages {1}{1}}}
\HyPL@Entry{1<</P(2)>>}
\@writefile{toc}{\beamer@sectionintoc {1}{开始之前}{2}{0}{1}}
\@writefile{nav}{\headcommand {\beamer@sectionpages {1}{1}}}
\@writefile{nav}{\headcommand {\beamer@subsectionpages {1}{1}}}
\@writefile{nav}{\headcommand {\sectionentry {1}{开始之前}{2}{开始之前}{0}}}
\@writefile{nav}{\headcommand {\slideentry {1}{0}{1}{2/2}{}{0}}}
\@writefile{nav}{\headcommand {\beamer@framepages {2}{2}}}
\HyPL@Entry{2<</P(3)>>}
\newlabel{sec:开始之前}{{1}{3}{开始之前}{Doc-Start}{}}
\@writefile{snm}{\beamer@slide {sec:开始之前}{3}}
\@writefile{nav}{\headcommand {\slideentry {1}{0}{2}{3/4}{}{0}}}
\@writefile{nav}{\headcommand {\beamer@framepages {3}{4}}}
\HyPL@Entry{4<</P(4)>>}
\@writefile{toc}{\beamer@sectionintoc {2}{z3简介}{5}{0}{2}}
\@writefile{nav}{\headcommand {\beamer@sectionpages {2}{4}}}
\@writefile{nav}{\headcommand {\beamer@subsectionpages {2}{4}}}
\@writefile{nav}{\headcommand {\sectionentry {2}{z3简介}{5}{z3简介}{0}}}
\@writefile{nav}{\headcommand {\slideentry {2}{0}{1}{5/5}{}{0}}}
\@writefile{nav}{\headcommand {\beamer@framepages {5}{5}}}
\HyPL@Entry{5<</P(5)>>}
\@writefile{nav}{\headcommand {\slideentry {2}{0}{2}{6/6}{}{0}}}
\@writefile{nav}{\headcommand {\beamer@framepages {6}{6}}}
\HyPL@Entry{6<</P(6)>>}
\@writefile{nav}{\headcommand {\slideentry {2}{0}{3}{7/7}{}{0}}}
\@writefile{nav}{\headcommand {\beamer@framepages {7}{7}}}
\HyPL@Entry{7<</P(7)>>}
\@writefile{nav}{\headcommand {\slideentry {2}{0}{4}{8/8}{}{0}}}
\@writefile{nav}{\headcommand {\beamer@framepages {8}{8}}}
\HyPL@Entry{8<</P(8)>>}
\@writefile{toc}{\beamer@sectionintoc {3}{示例}{9}{0}{3}}
\@writefile{nav}{\headcommand {\beamer@sectionpages {5}{8}}}
\@writefile{nav}{\headcommand {\beamer@subsectionpages {5}{8}}}
\@writefile{nav}{\headcommand {\sectionentry {3}{示例}{9}{示例}{0}}}
\@writefile{nav}{\headcommand {\slideentry {3}{0}{1}{9/9}{}{0}}}
\@writefile{nav}{\headcommand {\beamer@framepages {9}{9}}}
\HyPL@Entry{9<</P(9)>>}
\newlabel{sec:示例}{{3}{10}{示例}{Doc-Start}{}}
\@writefile{snm}{\beamer@slide {sec:示例}{10}}
\@writefile{nav}{\headcommand {\slideentry {3}{0}{2}{10/10}{}{0}}}
\@writefile{nav}{\headcommand {\beamer@framepages {10}{10}}}
\HyPL@Entry{10<</P(10)>>}
\@writefile{nav}{\headcommand {\slideentry {3}{0}{3}{11/11}{}{0}}}
\@writefile{nav}{\headcommand {\beamer@framepages {11}{11}}}
\HyPL@Entry{11<</P(11)>>}
\@writefile{nav}{\headcommand {\slideentry {3}{0}{4}{12/12}{}{0}}}
\@writefile{nav}{\headcommand {\beamer@framepages {12}{12}}}
\HyPL@Entry{12<</P(12)>>}
\@writefile{nav}{\headcommand {\slideentry {3}{0}{5}{13/13}{}{0}}}
\@writefile{nav}{\headcommand {\beamer@framepages {13}{13}}}
\HyPL@Entry{13<</P(13)>>}
\@writefile{nav}{\headcommand {\slideentry {3}{0}{6}{14/14}{}{0}}}
\@writefile{nav}{\headcommand {\beamer@framepages {14}{14}}}
\HyPL@Entry{14<</P(14)>>}
\@writefile{nav}{\headcommand {\slideentry {3}{0}{7}{15/15}{}{0}}}
\@writefile{nav}{\headcommand {\beamer@framepages {15}{15}}}
\HyPL@Entry{15<</P(15)>>}
\@writefile{nav}{\headcommand {\slideentry {3}{0}{8}{16/16}{}{0}}}
\@writefile{nav}{\headcommand {\beamer@framepages {16}{16}}}
\HyPL@Entry{16<</P(16)>>}
\@writefile{nav}{\headcommand {\slideentry {3}{0}{9}{17/17}{}{0}}}
\@writefile{nav}{\headcommand {\beamer@framepages {17}{17}}}
\@writefile{nav}{\headcommand {\beamer@partpages {1}{17}}}
\@writefile{nav}{\headcommand {\beamer@subsectionpages {9}{17}}}
\@writefile{nav}{\headcommand {\beamer@sectionpages {9}{17}}}
\@writefile{nav}{\headcommand {\beamer@documentpages {17}}}
\@writefile{nav}{\headcommand {\gdef \inserttotalframenumber {16}}}
