\select@language {english}
\beamer@sectionintoc {1}{简单案例}{2}{0}{1}
\beamer@sectionintoc {2}{Hacker News}{3}{0}{2}
\beamer@sectionintoc {3}{Linux Kernel Mailing List}{9}{0}{3}
\beamer@sectionintoc {4}{Slides Generator}{12}{0}{4}
