\relax 
\providecommand\hyper@newdestlabel[2]{}
\providecommand\HyperFirstAtBeginDocument{\AtBeginDocument}
\HyperFirstAtBeginDocument{\ifx\hyper@anchor\@undefined
\global\let\oldcontentsline\contentsline
\gdef\contentsline#1#2#3#4{\oldcontentsline{#1}{#2}{#3}}
\global\let\oldnewlabel\newlabel
\gdef\newlabel#1#2{\newlabelxx{#1}#2}
\gdef\newlabelxx#1#2#3#4#5#6{\oldnewlabel{#1}{{#2}{#3}}}
\AtEndDocument{\ifx\hyper@anchor\@undefined
\let\contentsline\oldcontentsline
\let\newlabel\oldnewlabel
\fi}
\fi}
\global\let\hyper@last\relax 
\gdef\HyperFirstAtBeginDocument#1{#1}
\providecommand*\HyPL@Entry[1]{}
\HyPL@Entry{0<</P(1)>>}
\select@language{english}
\@writefile{toc}{\select@language{english}}
\@writefile{lof}{\select@language{english}}
\@writefile{lot}{\select@language{english}}
\@writefile{nav}{\headcommand {\slideentry {0}{0}{1}{1/1}{}{0}}}
\@writefile{nav}{\headcommand {\beamer@framepages {1}{1}}}
\HyPL@Entry{1<</P(2)>>}
\@writefile{toc}{\beamer@sectionintoc {1}{简单案例}{2}{0}{1}}
\@writefile{nav}{\headcommand {\sectionentry {1}{简单案例}{2}{简单案例}{0}}}
\@writefile{nav}{\headcommand {\beamer@sectionpages {1}{1}}}
\@writefile{nav}{\headcommand {\beamer@subsectionpages {1}{1}}}
\@writefile{nav}{\headcommand {\slideentry {1}{0}{1}{2/2}{}{0}}}
\@writefile{nav}{\headcommand {\beamer@framepages {2}{2}}}
\HyPL@Entry{2<</P(3)>>}
\newlabel{sec:简单案例}{{1}{3}{简单案例}{Doc-Start}{}}
\@writefile{snm}{\beamer@slide {sec:简单案例}{3}}
\@writefile{toc}{\beamer@sectionintoc {2}{Hacker News}{3}{0}{2}}
\@writefile{nav}{\headcommand {\sectionentry {2}{Hacker News}{3}{Hacker News}{0}}}
\@writefile{nav}{\headcommand {\beamer@sectionpages {2}{2}}}
\@writefile{nav}{\headcommand {\beamer@subsectionpages {2}{2}}}
\@writefile{nav}{\headcommand {\slideentry {2}{0}{1}{3/3}{}{0}}}
\@writefile{nav}{\headcommand {\beamer@framepages {3}{3}}}
\HyPL@Entry{3<</P(4)>>}
\newlabel{sec:Hacker News}{{2}{4}{Hacker News}{Doc-Start}{}}
\@writefile{snm}{\beamer@slide {sec:Hacker News}{4}}
\@writefile{nav}{\headcommand {\slideentry {2}{0}{2}{4/4}{}{0}}}
\@writefile{nav}{\headcommand {\beamer@framepages {4}{4}}}
\HyPL@Entry{4<</P(5)>>}
\@writefile{nav}{\headcommand {\slideentry {2}{0}{3}{5/5}{}{0}}}
\@writefile{nav}{\headcommand {\beamer@framepages {5}{5}}}
\HyPL@Entry{5<</P(6)>>}
\@writefile{nav}{\headcommand {\slideentry {2}{0}{4}{6/6}{}{0}}}
\@writefile{nav}{\headcommand {\beamer@framepages {6}{6}}}
\HyPL@Entry{6<</P(7)>>}
\@writefile{nav}{\headcommand {\slideentry {2}{0}{5}{7/7}{}{0}}}
\@writefile{nav}{\headcommand {\beamer@framepages {7}{7}}}
\HyPL@Entry{7<</P(8)>>}
\@writefile{nav}{\headcommand {\slideentry {2}{0}{6}{8/8}{}{0}}}
\@writefile{nav}{\headcommand {\beamer@framepages {8}{8}}}
\HyPL@Entry{8<</P(9)>>}
\@writefile{toc}{\beamer@sectionintoc {3}{Linux Kernel Mailing List}{9}{0}{3}}
\@writefile{nav}{\headcommand {\sectionentry {3}{Linux Kernel Mailing List}{9}{Linux Kernel Mailing List}{0}}}
\@writefile{nav}{\headcommand {\beamer@sectionpages {3}{8}}}
\@writefile{nav}{\headcommand {\beamer@subsectionpages {3}{8}}}
\@writefile{nav}{\headcommand {\slideentry {3}{0}{1}{9/9}{}{0}}}
\@writefile{nav}{\headcommand {\beamer@framepages {9}{9}}}
\HyPL@Entry{9<</P(10)>>}
\newlabel{sec:Linux Kernel Mailing List}{{3}{10}{Linux Kernel Mailing List}{Doc-Start}{}}
\@writefile{snm}{\beamer@slide {sec:Linux Kernel Mailing List}{10}}
\@writefile{nav}{\headcommand {\slideentry {3}{0}{2}{10/10}{}{0}}}
\@writefile{nav}{\headcommand {\beamer@framepages {10}{10}}}
\HyPL@Entry{10<</P(11)>>}
\@writefile{nav}{\headcommand {\slideentry {3}{0}{3}{11/11}{}{0}}}
\@writefile{nav}{\headcommand {\beamer@framepages {11}{11}}}
\HyPL@Entry{11<</P(12)>>}
\@writefile{toc}{\beamer@sectionintoc {4}{Slides Generator}{12}{0}{4}}
\@writefile{nav}{\headcommand {\sectionentry {4}{Slides Generator}{12}{Slides Generator}{0}}}
\@writefile{nav}{\headcommand {\beamer@sectionpages {9}{11}}}
\@writefile{nav}{\headcommand {\beamer@subsectionpages {9}{11}}}
\@writefile{nav}{\headcommand {\slideentry {4}{0}{1}{12/12}{}{0}}}
\@writefile{nav}{\headcommand {\beamer@framepages {12}{12}}}
\HyPL@Entry{12<</P(13)>>}
\newlabel{sec:Slides Generator}{{4}{13}{Slides Generator}{Doc-Start}{}}
\@writefile{snm}{\beamer@slide {sec:Slides Generator}{13}}
\@writefile{nav}{\headcommand {\slideentry {4}{0}{2}{13/13}{}{0}}}
\@writefile{nav}{\headcommand {\beamer@framepages {13}{13}}}
\HyPL@Entry{13<</P(14)>>}
\@writefile{nav}{\headcommand {\slideentry {4}{0}{3}{14/14}{}{0}}}
\@writefile{nav}{\headcommand {\beamer@framepages {14}{14}}}
\@writefile{nav}{\headcommand {\beamer@partpages {1}{14}}}
\@writefile{nav}{\headcommand {\beamer@subsectionpages {12}{14}}}
\@writefile{nav}{\headcommand {\beamer@sectionpages {12}{14}}}
\@writefile{nav}{\headcommand {\beamer@documentpages {14}}}
\@writefile{nav}{\headcommand {\def \inserttotalframenumber {14}}}
