\relax 
\providecommand\hyper@newdestlabel[2]{}
\providecommand\HyperFirstAtBeginDocument{\AtBeginDocument}
\HyperFirstAtBeginDocument{\ifx\hyper@anchor\@undefined
\global\let\oldcontentsline\contentsline
\gdef\contentsline#1#2#3#4{\oldcontentsline{#1}{#2}{#3}}
\global\let\oldnewlabel\newlabel
\gdef\newlabel#1#2{\newlabelxx{#1}#2}
\gdef\newlabelxx#1#2#3#4#5#6{\oldnewlabel{#1}{{#2}{#3}}}
\AtEndDocument{\ifx\hyper@anchor\@undefined
\let\contentsline\oldcontentsline
\let\newlabel\oldnewlabel
\fi}
\fi}
\global\let\hyper@last\relax 
\gdef\HyperFirstAtBeginDocument#1{#1}
\providecommand*\HyPL@Entry[1]{}
\providecommand\babel@aux[2]{}
\@nameuse{bbl@beforestart}
\HyPL@Entry{0<</P(1)>>}
\babel@aux{english}{}
\@writefile{nav}{\headcommand {\slideentry {0}{0}{1}{1/1}{}{0}}}
\@writefile{nav}{\headcommand {\beamer@framepages {1}{1}}}
\HyPL@Entry{1<</P(2)>>}
\@writefile{nav}{\headcommand {\slideentry {0}{0}{2}{2/2}{}{0}}}
\@writefile{nav}{\headcommand {\beamer@framepages {2}{2}}}
\HyPL@Entry{2<</P(3)>>}
\@writefile{nav}{\headcommand {\slideentry {0}{0}{3}{3/3}{}{0}}}
\@writefile{nav}{\headcommand {\beamer@framepages {3}{3}}}
\HyPL@Entry{3<</P(4)>>}
\@writefile{nav}{\headcommand {\slideentry {0}{0}{4}{4/4}{}{0}}}
\@writefile{nav}{\headcommand {\beamer@framepages {4}{4}}}
\HyPL@Entry{4<</P(5)>>}
\@writefile{toc}{\beamer@sectionintoc {1}{Robots协议}{5}{0}{1}}
\@writefile{nav}{\headcommand {\beamer@sectionpages {1}{4}}}
\@writefile{nav}{\headcommand {\beamer@subsectionpages {1}{4}}}
\@writefile{nav}{\headcommand {\sectionentry {1}{Robots协议}{5}{Robots协议}{0}}}
\@writefile{nav}{\headcommand {\slideentry {1}{0}{1}{5/5}{}{0}}}
\@writefile{nav}{\headcommand {\beamer@framepages {5}{5}}}
\HyPL@Entry{5<</P(6)>>}
\newlabel{sec:Robots协议}{{1}{6}{Robots协议}{Doc-Start}{}}
\@writefile{snm}{\beamer@slide {sec:Robots协议}{6}}
\@writefile{nav}{\headcommand {\slideentry {1}{0}{2}{6/6}{}{0}}}
\@writefile{nav}{\headcommand {\beamer@framepages {6}{6}}}
\HyPL@Entry{6<</P(7)>>}
\@writefile{nav}{\headcommand {\slideentry {1}{0}{3}{7/7}{}{0}}}
\@writefile{nav}{\headcommand {\beamer@framepages {7}{7}}}
\HyPL@Entry{7<</P(8)>>}
\@writefile{nav}{\headcommand {\slideentry {1}{0}{4}{8/8}{}{0}}}
\@writefile{nav}{\headcommand {\beamer@framepages {8}{8}}}
\HyPL@Entry{8<</P(9)>>}
\@writefile{nav}{\headcommand {\slideentry {1}{0}{5}{9/9}{}{0}}}
\@writefile{nav}{\headcommand {\beamer@framepages {9}{9}}}
\HyPL@Entry{9<</P(10)>>}
\@writefile{nav}{\headcommand {\slideentry {1}{0}{6}{10/10}{}{0}}}
\@writefile{nav}{\headcommand {\beamer@framepages {10}{10}}}
\HyPL@Entry{10<</P(11)>>}
\@writefile{nav}{\headcommand {\slideentry {1}{0}{7}{11/11}{}{0}}}
\@writefile{nav}{\headcommand {\beamer@framepages {11}{11}}}
\HyPL@Entry{11<</P(12)>>}
\@writefile{nav}{\headcommand {\slideentry {1}{0}{8}{12/12}{}{0}}}
\@writefile{nav}{\headcommand {\beamer@framepages {12}{12}}}
\HyPL@Entry{12<</P(13)>>}
\@writefile{nav}{\headcommand {\slideentry {1}{0}{9}{13/13}{}{0}}}
\@writefile{nav}{\headcommand {\beamer@framepages {13}{13}}}
\HyPL@Entry{13<</P(14)>>}
\@writefile{toc}{\beamer@sectionintoc {2}{License}{14}{0}{2}}
\@writefile{nav}{\headcommand {\beamer@sectionpages {5}{13}}}
\@writefile{nav}{\headcommand {\beamer@subsectionpages {5}{13}}}
\@writefile{nav}{\headcommand {\sectionentry {2}{License}{14}{License}{0}}}
\@writefile{nav}{\headcommand {\slideentry {2}{0}{1}{14/14}{}{0}}}
\@writefile{nav}{\headcommand {\beamer@framepages {14}{14}}}
\HyPL@Entry{14<</P(15)>>}
\newlabel{sec:License}{{2}{15}{License}{Doc-Start}{}}
\@writefile{snm}{\beamer@slide {sec:License}{15}}
\@writefile{nav}{\headcommand {\slideentry {2}{0}{2}{15/15}{}{0}}}
\@writefile{nav}{\headcommand {\beamer@framepages {15}{15}}}
\HyPL@Entry{15<</P(16)>>}
\@writefile{nav}{\headcommand {\slideentry {2}{0}{3}{16/16}{}{0}}}
\@writefile{nav}{\headcommand {\beamer@framepages {16}{16}}}
\HyPL@Entry{16<</P(17)>>}
\@writefile{toc}{\beamer@sectionintoc {3}{Requests: HTTP for Humans}{17}{0}{3}}
\@writefile{nav}{\headcommand {\beamer@sectionpages {14}{16}}}
\@writefile{nav}{\headcommand {\beamer@subsectionpages {14}{16}}}
\@writefile{nav}{\headcommand {\sectionentry {3}{Requests: HTTP for Humans}{17}{Requests: HTTP for Humans}{0}}}
\@writefile{nav}{\headcommand {\slideentry {3}{0}{1}{17/17}{}{0}}}
\@writefile{nav}{\headcommand {\beamer@framepages {17}{17}}}
\HyPL@Entry{17<</P(18)>>}
\newlabel{sec:Requests: HTTP for Humans}{{3}{18}{Requests: HTTP for Humans}{Doc-Start}{}}
\@writefile{snm}{\beamer@slide {sec:Requests: HTTP for Humans}{18}}
\@writefile{nav}{\headcommand {\slideentry {3}{0}{2}{18/18}{}{0}}}
\@writefile{nav}{\headcommand {\beamer@framepages {18}{18}}}
\HyPL@Entry{18<</P(19)>>}
\@writefile{nav}{\headcommand {\slideentry {3}{0}{3}{19/19}{}{0}}}
\@writefile{nav}{\headcommand {\beamer@framepages {19}{19}}}
\HyPL@Entry{19<</P(20)>>}
\@writefile{nav}{\headcommand {\slideentry {3}{0}{4}{20/20}{}{0}}}
\@writefile{nav}{\headcommand {\beamer@framepages {20}{20}}}
\HyPL@Entry{20<</P(21)>>}
\@writefile{toc}{\beamer@sectionintoc {4}{Tutorial}{21}{0}{4}}
\@writefile{nav}{\headcommand {\beamer@sectionpages {17}{20}}}
\@writefile{nav}{\headcommand {\beamer@subsectionpages {17}{20}}}
\@writefile{nav}{\headcommand {\sectionentry {4}{Tutorial}{21}{Tutorial}{0}}}
\@writefile{nav}{\headcommand {\slideentry {4}{0}{1}{21/21}{}{0}}}
\@writefile{nav}{\headcommand {\beamer@framepages {21}{21}}}
\HyPL@Entry{21<</P(22)>>}
\newlabel{sec:Tutorial}{{4}{22}{Tutorial}{Doc-Start}{}}
\@writefile{snm}{\beamer@slide {sec:Tutorial}{22}}
\@writefile{nav}{\headcommand {\slideentry {4}{0}{2}{22/22}{}{0}}}
\@writefile{nav}{\headcommand {\beamer@framepages {22}{22}}}
\HyPL@Entry{22<</P(23)>>}
\@writefile{nav}{\headcommand {\slideentry {4}{0}{3}{23/23}{}{0}}}
\@writefile{nav}{\headcommand {\beamer@framepages {23}{23}}}
\HyPL@Entry{23<</P(24)>>}
\@writefile{nav}{\headcommand {\slideentry {4}{0}{4}{24/24}{}{0}}}
\@writefile{nav}{\headcommand {\beamer@framepages {24}{24}}}
\HyPL@Entry{24<</P(25)>>}
\@writefile{nav}{\headcommand {\slideentry {4}{0}{5}{25/25}{}{0}}}
\@writefile{nav}{\headcommand {\beamer@framepages {25}{25}}}
\HyPL@Entry{25<</P(26)>>}
\@writefile{toc}{\beamer@sectionintoc {5}{使用正规式}{26}{0}{5}}
\@writefile{nav}{\headcommand {\beamer@sectionpages {21}{25}}}
\@writefile{nav}{\headcommand {\beamer@subsectionpages {21}{25}}}
\@writefile{nav}{\headcommand {\sectionentry {5}{使用正规式}{26}{使用正规式}{0}}}
\@writefile{nav}{\headcommand {\slideentry {5}{0}{1}{26/26}{}{0}}}
\@writefile{nav}{\headcommand {\beamer@framepages {26}{26}}}
\HyPL@Entry{26<</P(27)>>}
\newlabel{sec:使用正规式}{{5}{27}{使用正规式}{Doc-Start}{}}
\@writefile{snm}{\beamer@slide {sec:使用正规式}{27}}
\@writefile{nav}{\headcommand {\slideentry {5}{0}{2}{27/27}{}{0}}}
\@writefile{nav}{\headcommand {\beamer@framepages {27}{27}}}
\HyPL@Entry{27<</P(28)>>}
\@writefile{nav}{\headcommand {\slideentry {5}{0}{3}{28/28}{}{0}}}
\@writefile{nav}{\headcommand {\beamer@framepages {28}{28}}}
\HyPL@Entry{28<</P(29)>>}
\@writefile{nav}{\headcommand {\slideentry {5}{0}{4}{29/29}{}{0}}}
\@writefile{nav}{\headcommand {\beamer@framepages {29}{29}}}
\HyPL@Entry{29<</P(30)>>}
\@writefile{nav}{\headcommand {\slideentry {5}{0}{5}{30/30}{}{0}}}
\@writefile{nav}{\headcommand {\beamer@framepages {30}{30}}}
\HyPL@Entry{30<</P(31)>>}
\@writefile{nav}{\headcommand {\slideentry {5}{0}{6}{31/31}{}{0}}}
\@writefile{nav}{\headcommand {\beamer@framepages {31}{31}}}
\HyPL@Entry{31<</P(32)>>}
\@writefile{nav}{\headcommand {\slideentry {5}{0}{7}{32/32}{}{0}}}
\@writefile{nav}{\headcommand {\beamer@framepages {32}{32}}}
\HyPL@Entry{32<</P(33)>>}
\@writefile{nav}{\headcommand {\slideentry {5}{0}{8}{33/33}{}{0}}}
\@writefile{nav}{\headcommand {\beamer@framepages {33}{33}}}
\HyPL@Entry{33<</P(34)>>}
\@writefile{nav}{\headcommand {\slideentry {5}{0}{9}{34/34}{}{0}}}
\@writefile{nav}{\headcommand {\beamer@framepages {34}{34}}}
\HyPL@Entry{34<</P(35)>>}
\@writefile{nav}{\headcommand {\slideentry {5}{0}{10}{35/35}{}{0}}}
\@writefile{nav}{\headcommand {\beamer@framepages {35}{35}}}
\HyPL@Entry{35<</P(36)>>}
\@writefile{nav}{\headcommand {\slideentry {5}{0}{11}{36/36}{}{0}}}
\@writefile{nav}{\headcommand {\beamer@framepages {36}{36}}}
\HyPL@Entry{36<</P(37)>>}
\@writefile{nav}{\headcommand {\slideentry {5}{0}{12}{37/37}{}{0}}}
\@writefile{nav}{\headcommand {\beamer@framepages {37}{37}}}
\HyPL@Entry{37<</P(38)>>}
\@writefile{nav}{\headcommand {\slideentry {5}{0}{13}{38/38}{}{0}}}
\@writefile{nav}{\headcommand {\beamer@framepages {38}{38}}}
\HyPL@Entry{38<</P(39)>>}
\@writefile{nav}{\headcommand {\slideentry {5}{0}{14}{39/39}{}{0}}}
\@writefile{nav}{\headcommand {\beamer@framepages {39}{39}}}
\HyPL@Entry{39<</P(40)>>}
\@writefile{nav}{\headcommand {\slideentry {5}{0}{15}{40/40}{}{0}}}
\@writefile{nav}{\headcommand {\beamer@framepages {40}{40}}}
\@writefile{nav}{\headcommand {\beamer@partpages {1}{40}}}
\@writefile{nav}{\headcommand {\beamer@subsectionpages {26}{40}}}
\@writefile{nav}{\headcommand {\beamer@sectionpages {26}{40}}}
\@writefile{nav}{\headcommand {\beamer@documentpages {40}}}
\@writefile{nav}{\headcommand {\gdef \inserttotalframenumber {40}}}
\gdef \@abspage@last{40}
