\babel@toc {english}{}
\beamer@sectionintoc {1}{Robots协议}{5}{0}{1}
\beamer@sectionintoc {2}{License}{14}{0}{2}
\beamer@sectionintoc {3}{Requests: HTTP for Humans}{17}{0}{3}
\beamer@sectionintoc {4}{Tutorial}{21}{0}{4}
\beamer@sectionintoc {5}{使用正规式}{26}{0}{5}
