\relax 
\providecommand\hyper@newdestlabel[2]{}
\providecommand\HyperFirstAtBeginDocument{\AtBeginDocument}
\HyperFirstAtBeginDocument{\ifx\hyper@anchor\@undefined
\global\let\oldcontentsline\contentsline
\gdef\contentsline#1#2#3#4{\oldcontentsline{#1}{#2}{#3}}
\global\let\oldnewlabel\newlabel
\gdef\newlabel#1#2{\newlabelxx{#1}#2}
\gdef\newlabelxx#1#2#3#4#5#6{\oldnewlabel{#1}{{#2}{#3}}}
\AtEndDocument{\ifx\hyper@anchor\@undefined
\let\contentsline\oldcontentsline
\let\newlabel\oldnewlabel
\fi}
\fi}
\global\let\hyper@last\relax 
\gdef\HyperFirstAtBeginDocument#1{#1}
\providecommand*\HyPL@Entry[1]{}
\providecommand\babel@aux[2]{}
\@nameuse{bbl@beforestart}
\HyPL@Entry{0<</P(\376\377\0001)>>}
\babel@aux{english}{}
\@writefile{nav}{\headcommand {\slideentry {0}{0}{1}{1/1}{}{0}}}
\@writefile{nav}{\headcommand {\beamer@framepages {1}{1}}}
\HyPL@Entry{1<</P(\376\377\0002)>>}
\@writefile{toc}{\beamer@sectionintoc {1}{Python环境安装}{2}{0}{1}}
\@writefile{nav}{\headcommand {\beamer@sectionpages {1}{1}}}
\@writefile{nav}{\headcommand {\beamer@subsectionpages {1}{1}}}
\@writefile{nav}{\headcommand {\sectionentry {1}{Python环境安装}{2}{Python环境安装}{0}}}
\@writefile{nav}{\headcommand {\slideentry {1}{0}{1}{2/2}{}{0}}}
\@writefile{nav}{\headcommand {\beamer@framepages {2}{2}}}
\HyPL@Entry{2<</P(\376\377\0003)>>}
\@writefile{nav}{\headcommand {\slideentry {1}{0}{2}{3/3}{}{0}}}
\@writefile{nav}{\headcommand {\beamer@framepages {3}{3}}}
\HyPL@Entry{3<</P(\376\377\0004)>>}
\@writefile{nav}{\headcommand {\slideentry {1}{0}{3}{4/4}{}{0}}}
\@writefile{nav}{\headcommand {\beamer@framepages {4}{4}}}
\HyPL@Entry{4<</P(\376\377\0005)>>}
\@writefile{nav}{\headcommand {\slideentry {1}{0}{4}{5/5}{}{0}}}
\@writefile{nav}{\headcommand {\beamer@framepages {5}{5}}}
\HyPL@Entry{5<</P(\376\377\0006)>>}
\@writefile{nav}{\headcommand {\slideentry {1}{0}{5}{6/6}{}{0}}}
\@writefile{nav}{\headcommand {\beamer@framepages {6}{6}}}
\HyPL@Entry{6<</P(\376\377\0007)>>}
\@writefile{nav}{\headcommand {\slideentry {1}{0}{6}{7/7}{}{0}}}
\@writefile{nav}{\headcommand {\beamer@framepages {7}{7}}}
\HyPL@Entry{7<</P(\376\377\0008)>>}
\@writefile{nav}{\headcommand {\slideentry {1}{0}{7}{8/8}{}{0}}}
\@writefile{nav}{\headcommand {\beamer@framepages {8}{8}}}
\HyPL@Entry{8<</P(\376\377\0009)>>}
\@writefile{nav}{\headcommand {\slideentry {1}{0}{8}{9/9}{}{0}}}
\@writefile{nav}{\headcommand {\beamer@framepages {9}{9}}}
\HyPL@Entry{9<</P(\376\377\0001\0000)>>}
\@writefile{toc}{\beamer@sectionintoc {2}{Hello world}{10}{0}{2}}
\@writefile{nav}{\headcommand {\beamer@sectionpages {2}{9}}}
\@writefile{nav}{\headcommand {\beamer@subsectionpages {2}{9}}}
\@writefile{nav}{\headcommand {\sectionentry {2}{Hello world}{10}{Hello world}{0}}}
\@writefile{nav}{\headcommand {\slideentry {2}{0}{1}{10/10}{}{0}}}
\@writefile{nav}{\headcommand {\beamer@framepages {10}{10}}}
\HyPL@Entry{10<</P(\376\377\0001\0001)>>}
\@writefile{nav}{\headcommand {\slideentry {2}{0}{2}{11/11}{}{0}}}
\@writefile{nav}{\headcommand {\beamer@framepages {11}{11}}}
\HyPL@Entry{11<</P(\376\377\0001\0002)>>}
\@writefile{nav}{\headcommand {\slideentry {2}{0}{3}{12/12}{}{0}}}
\@writefile{nav}{\headcommand {\beamer@framepages {12}{12}}}
\HyPL@Entry{12<</P(\376\377\0001\0003)>>}
\@writefile{nav}{\headcommand {\slideentry {2}{0}{4}{13/13}{}{0}}}
\@writefile{nav}{\headcommand {\beamer@framepages {13}{13}}}
\HyPL@Entry{13<</P(\376\377\0001\0004)>>}
\@writefile{nav}{\headcommand {\slideentry {2}{0}{5}{14/14}{}{0}}}
\@writefile{nav}{\headcommand {\beamer@framepages {14}{14}}}
\HyPL@Entry{14<</P(\376\377\0001\0005)>>}
\@writefile{toc}{\beamer@sectionintoc {3}{变量、类型、基本流程控制}{15}{0}{3}}
\@writefile{nav}{\headcommand {\beamer@sectionpages {10}{14}}}
\@writefile{nav}{\headcommand {\beamer@subsectionpages {10}{14}}}
\@writefile{nav}{\headcommand {\sectionentry {3}{变量、类型、基本流程控制}{15}{变量、类型、基本流程控制}{0}}}
\@writefile{nav}{\headcommand {\slideentry {3}{0}{1}{15/15}{}{0}}}
\@writefile{nav}{\headcommand {\beamer@framepages {15}{15}}}
\HyPL@Entry{15<</P(\376\377\0001\0006)>>}
\newlabel{sec:变量、类型、基本流程控制}{{3}{16}{变量、类型、基本流程控制}{Doc-Start}{}}
\@writefile{snm}{\beamer@slide {sec:变量、类型、基本流程控制}{16}}
\@writefile{toc}{\beamer@subsectionintoc {3}{1}{数值}{16}{0}{3}}
\@writefile{nav}{\headcommand {\beamer@subsectionpages {15}{15}}}
\@writefile{nav}{\headcommand {\beamer@subsectionentry {0}{3}{1}{16}{数值}}}
\@writefile{nav}{\headcommand {\slideentry {3}{1}{1}{16/16}{数值}{0}}}
\@writefile{nav}{\headcommand {\beamer@framepages {16}{16}}}
\HyPL@Entry{16<</P(\376\377\0001\0007)>>}
\@writefile{nav}{\headcommand {\slideentry {3}{1}{2}{17/17}{数值}{0}}}
\@writefile{nav}{\headcommand {\beamer@framepages {17}{17}}}
\HyPL@Entry{17<</P(\376\377\0001\0008)>>}
\@writefile{nav}{\headcommand {\slideentry {3}{1}{3}{18/18}{数值}{0}}}
\@writefile{nav}{\headcommand {\beamer@framepages {18}{18}}}
\HyPL@Entry{18<</P(\376\377\0001\0009)>>}
\@writefile{nav}{\headcommand {\slideentry {3}{1}{4}{19/19}{数值}{0}}}
\@writefile{nav}{\headcommand {\beamer@framepages {19}{19}}}
\HyPL@Entry{19<</P(\376\377\0002\0000)>>}
\@writefile{nav}{\headcommand {\slideentry {3}{1}{5}{20/20}{数值}{0}}}
\@writefile{nav}{\headcommand {\beamer@framepages {20}{20}}}
\HyPL@Entry{20<</P(\376\377\0002\0001)>>}
\@writefile{nav}{\headcommand {\slideentry {3}{1}{6}{21/21}{数值}{0}}}
\@writefile{nav}{\headcommand {\beamer@framepages {21}{21}}}
\HyPL@Entry{21<</P(\376\377\0002\0002)>>}
\@writefile{nav}{\headcommand {\slideentry {3}{1}{7}{22/22}{数值}{0}}}
\@writefile{nav}{\headcommand {\beamer@framepages {22}{22}}}
\HyPL@Entry{22<</P(\376\377\0002\0003)>>}
\@writefile{nav}{\headcommand {\slideentry {3}{1}{8}{23/23}{数值}{0}}}
\@writefile{nav}{\headcommand {\beamer@framepages {23}{23}}}
\HyPL@Entry{23<</P(\376\377\0002\0004)>>}
\@writefile{nav}{\headcommand {\slideentry {3}{1}{9}{24/24}{数值}{0}}}
\@writefile{nav}{\headcommand {\beamer@framepages {24}{24}}}
\HyPL@Entry{24<</P(\376\377\0002\0005)>>}
\@writefile{nav}{\headcommand {\slideentry {3}{1}{10}{25/25}{数值}{0}}}
\@writefile{nav}{\headcommand {\beamer@framepages {25}{25}}}
\HyPL@Entry{25<</P(\376\377\0002\0006)>>}
\@writefile{nav}{\headcommand {\slideentry {3}{1}{11}{26/26}{数值}{0}}}
\@writefile{nav}{\headcommand {\beamer@framepages {26}{26}}}
\HyPL@Entry{26<</P(\376\377\0002\0007)>>}
\@writefile{nav}{\headcommand {\slideentry {3}{1}{12}{27/27}{数值}{0}}}
\@writefile{nav}{\headcommand {\beamer@framepages {27}{27}}}
\HyPL@Entry{27<</P(\376\377\0002\0008)>>}
\@writefile{toc}{\beamer@subsectionintoc {3}{2}{字符串}{28}{0}{3}}
\@writefile{nav}{\headcommand {\beamer@subsectionpages {16}{27}}}
\@writefile{nav}{\headcommand {\beamer@subsectionentry {0}{3}{2}{28}{字符串}}}
\@writefile{nav}{\headcommand {\slideentry {3}{2}{1}{28/28}{字符串}{0}}}
\@writefile{nav}{\headcommand {\beamer@framepages {28}{28}}}
\HyPL@Entry{28<</P(\376\377\0002\0009)>>}
\@writefile{nav}{\headcommand {\slideentry {3}{2}{2}{29/29}{字符串}{0}}}
\@writefile{nav}{\headcommand {\beamer@framepages {29}{29}}}
\HyPL@Entry{29<</P(\376\377\0003\0000)>>}
\@writefile{nav}{\headcommand {\slideentry {3}{2}{3}{30/30}{字符串}{0}}}
\@writefile{nav}{\headcommand {\beamer@framepages {30}{30}}}
\HyPL@Entry{30<</P(\376\377\0003\0001)>>}
\@writefile{nav}{\headcommand {\slideentry {3}{2}{4}{31/31}{字符串}{0}}}
\@writefile{nav}{\headcommand {\beamer@framepages {31}{31}}}
\HyPL@Entry{31<</P(\376\377\0003\0002)>>}
\@writefile{nav}{\headcommand {\slideentry {3}{2}{5}{32/32}{字符串}{0}}}
\@writefile{nav}{\headcommand {\beamer@framepages {32}{32}}}
\HyPL@Entry{32<</P(\376\377\0003\0003)>>}
\@writefile{nav}{\headcommand {\slideentry {3}{2}{6}{33/33}{字符串}{0}}}
\@writefile{nav}{\headcommand {\beamer@framepages {33}{33}}}
\HyPL@Entry{33<</P(\376\377\0003\0004)>>}
\@writefile{nav}{\headcommand {\slideentry {3}{2}{7}{34/34}{字符串}{0}}}
\@writefile{nav}{\headcommand {\beamer@framepages {34}{34}}}
\HyPL@Entry{34<</P(\376\377\0003\0005)>>}
\@writefile{nav}{\headcommand {\slideentry {3}{2}{8}{35/35}{字符串}{0}}}
\@writefile{nav}{\headcommand {\beamer@framepages {35}{35}}}
\HyPL@Entry{35<</P(\376\377\0003\0006)>>}
\@writefile{nav}{\headcommand {\slideentry {3}{2}{9}{36/36}{字符串}{0}}}
\@writefile{nav}{\headcommand {\beamer@framepages {36}{36}}}
\HyPL@Entry{36<</P(\376\377\0003\0007)>>}
\@writefile{nav}{\headcommand {\slideentry {3}{2}{10}{37/37}{字符串}{0}}}
\@writefile{nav}{\headcommand {\beamer@framepages {37}{37}}}
\HyPL@Entry{37<</P(\376\377\0003\0008)>>}
\@writefile{nav}{\headcommand {\slideentry {3}{2}{11}{38/38}{字符串}{0}}}
\@writefile{nav}{\headcommand {\beamer@framepages {38}{38}}}
\HyPL@Entry{38<</P(\376\377\0003\0009)>>}
\@writefile{nav}{\headcommand {\slideentry {3}{2}{12}{39/39}{字符串}{0}}}
\@writefile{nav}{\headcommand {\beamer@framepages {39}{39}}}
\HyPL@Entry{39<</P(\376\377\0004\0000)>>}
\@writefile{nav}{\headcommand {\slideentry {3}{2}{13}{40/40}{字符串}{0}}}
\@writefile{nav}{\headcommand {\beamer@framepages {40}{40}}}
\HyPL@Entry{40<</P(\376\377\0004\0001)>>}
\@writefile{nav}{\headcommand {\slideentry {3}{2}{14}{41/41}{字符串}{0}}}
\@writefile{nav}{\headcommand {\beamer@framepages {41}{41}}}
\HyPL@Entry{41<</P(\376\377\0004\0002)>>}
\@writefile{nav}{\headcommand {\slideentry {3}{2}{15}{42/42}{字符串}{0}}}
\@writefile{nav}{\headcommand {\beamer@framepages {42}{42}}}
\HyPL@Entry{42<</P(\376\377\0004\0003)>>}
\@writefile{nav}{\headcommand {\slideentry {3}{2}{16}{43/43}{字符串}{0}}}
\@writefile{nav}{\headcommand {\beamer@framepages {43}{43}}}
\HyPL@Entry{43<</P(\376\377\0004\0004)>>}
\@writefile{nav}{\headcommand {\slideentry {3}{2}{17}{44/44}{字符串}{0}}}
\@writefile{nav}{\headcommand {\beamer@framepages {44}{44}}}
\HyPL@Entry{44<</P(\376\377\0004\0005)>>}
\@writefile{nav}{\headcommand {\slideentry {3}{2}{18}{45/45}{字符串}{0}}}
\@writefile{nav}{\headcommand {\beamer@framepages {45}{45}}}
\HyPL@Entry{45<</P(\376\377\0004\0006)>>}
\@writefile{nav}{\headcommand {\slideentry {3}{2}{19}{46/46}{字符串}{0}}}
\@writefile{nav}{\headcommand {\beamer@framepages {46}{46}}}
\HyPL@Entry{46<</P(\376\377\0004\0007)>>}
\@writefile{nav}{\headcommand {\slideentry {3}{2}{20}{47/47}{字符串}{0}}}
\@writefile{nav}{\headcommand {\beamer@framepages {47}{47}}}
\HyPL@Entry{47<</P(\376\377\0004\0008)>>}
\@writefile{nav}{\headcommand {\slideentry {3}{2}{21}{48/48}{字符串}{0}}}
\@writefile{nav}{\headcommand {\beamer@framepages {48}{48}}}
\HyPL@Entry{48<</P(\376\377\0004\0009)>>}
\@writefile{nav}{\headcommand {\slideentry {3}{2}{22}{49/49}{字符串}{0}}}
\@writefile{nav}{\headcommand {\beamer@framepages {49}{49}}}
\HyPL@Entry{49<</P(\376\377\0005\0000)>>}
\@writefile{nav}{\headcommand {\slideentry {3}{2}{23}{50/50}{字符串}{0}}}
\@writefile{nav}{\headcommand {\beamer@framepages {50}{50}}}
\HyPL@Entry{50<</P(\376\377\0005\0001)>>}
\@writefile{nav}{\headcommand {\slideentry {3}{2}{24}{51/51}{字符串}{0}}}
\@writefile{nav}{\headcommand {\beamer@framepages {51}{51}}}
\HyPL@Entry{51<</P(\376\377\0005\0002)>>}
\@writefile{toc}{\beamer@subsectionintoc {3}{3}{列表}{52}{0}{3}}
\@writefile{nav}{\headcommand {\beamer@subsectionpages {28}{51}}}
\@writefile{nav}{\headcommand {\beamer@subsectionentry {0}{3}{3}{52}{列表}}}
\@writefile{nav}{\headcommand {\slideentry {3}{3}{1}{52/52}{列表}{0}}}
\@writefile{nav}{\headcommand {\beamer@framepages {52}{52}}}
\HyPL@Entry{52<</P(\376\377\0005\0003)>>}
\@writefile{nav}{\headcommand {\slideentry {3}{3}{2}{53/53}{列表}{0}}}
\@writefile{nav}{\headcommand {\beamer@framepages {53}{53}}}
\HyPL@Entry{53<</P(\376\377\0005\0004)>>}
\@writefile{nav}{\headcommand {\slideentry {3}{3}{3}{54/54}{列表}{0}}}
\@writefile{nav}{\headcommand {\beamer@framepages {54}{54}}}
\HyPL@Entry{54<</P(\376\377\0005\0005)>>}
\@writefile{nav}{\headcommand {\slideentry {3}{3}{4}{55/55}{列表}{0}}}
\@writefile{nav}{\headcommand {\beamer@framepages {55}{55}}}
\HyPL@Entry{55<</P(\376\377\0005\0006)>>}
\@writefile{nav}{\headcommand {\slideentry {3}{3}{5}{56/56}{列表}{0}}}
\@writefile{nav}{\headcommand {\beamer@framepages {56}{56}}}
\HyPL@Entry{56<</P(\376\377\0005\0007)>>}
\@writefile{nav}{\headcommand {\slideentry {3}{3}{6}{57/57}{列表}{0}}}
\@writefile{nav}{\headcommand {\beamer@framepages {57}{57}}}
\HyPL@Entry{57<</P(\376\377\0005\0008)>>}
\@writefile{nav}{\headcommand {\slideentry {3}{3}{7}{58/58}{列表}{0}}}
\@writefile{nav}{\headcommand {\beamer@framepages {58}{58}}}
\HyPL@Entry{58<</P(\376\377\0005\0009)>>}
\@writefile{nav}{\headcommand {\slideentry {3}{3}{8}{59/59}{列表}{0}}}
\@writefile{nav}{\headcommand {\beamer@framepages {59}{59}}}
\HyPL@Entry{59<</P(\376\377\0006\0000)>>}
\@writefile{nav}{\headcommand {\slideentry {3}{3}{9}{60/60}{列表}{0}}}
\@writefile{nav}{\headcommand {\beamer@framepages {60}{60}}}
\HyPL@Entry{60<</P(\376\377\0006\0001)>>}
\@writefile{nav}{\headcommand {\slideentry {3}{3}{10}{61/61}{列表}{0}}}
\@writefile{nav}{\headcommand {\beamer@framepages {61}{61}}}
\HyPL@Entry{61<</P(\376\377\0006\0002)>>}
\@writefile{toc}{\beamer@subsectionintoc {3}{4}{基本流程控制}{62}{0}{3}}
\@writefile{nav}{\headcommand {\beamer@subsectionpages {52}{61}}}
\@writefile{nav}{\headcommand {\beamer@subsectionentry {0}{3}{4}{62}{基本流程控制}}}
\@writefile{nav}{\headcommand {\slideentry {3}{4}{1}{62/62}{基本流程控制}{0}}}
\@writefile{nav}{\headcommand {\beamer@framepages {62}{62}}}
\HyPL@Entry{62<</P(\376\377\0006\0003)>>}
\@writefile{nav}{\headcommand {\slideentry {3}{4}{2}{63/63}{基本流程控制}{0}}}
\@writefile{nav}{\headcommand {\beamer@framepages {63}{63}}}
\HyPL@Entry{63<</P(\376\377\0006\0004)>>}
\@writefile{nav}{\headcommand {\slideentry {3}{4}{3}{64/64}{基本流程控制}{0}}}
\@writefile{nav}{\headcommand {\beamer@framepages {64}{64}}}
\HyPL@Entry{64<</P(\376\377\0006\0005)>>}
\@writefile{nav}{\headcommand {\slideentry {3}{4}{4}{65/65}{基本流程控制}{0}}}
\@writefile{nav}{\headcommand {\beamer@framepages {65}{65}}}
\HyPL@Entry{65<</P(\376\377\0006\0006)>>}
\@writefile{nav}{\headcommand {\slideentry {3}{4}{5}{66/66}{基本流程控制}{0}}}
\@writefile{nav}{\headcommand {\beamer@framepages {66}{66}}}
\HyPL@Entry{66<</P(\376\377\0006\0007)>>}
\@writefile{nav}{\headcommand {\slideentry {3}{4}{6}{67/67}{基本流程控制}{0}}}
\@writefile{nav}{\headcommand {\beamer@framepages {67}{67}}}
\HyPL@Entry{67<</P(\376\377\0006\0008)>>}
\@writefile{toc}{\beamer@sectionintoc {4}{函数}{68}{0}{4}}
\@writefile{nav}{\headcommand {\beamer@sectionpages {15}{67}}}
\@writefile{nav}{\headcommand {\beamer@subsectionpages {62}{67}}}
\@writefile{nav}{\headcommand {\sectionentry {4}{函数}{68}{函数}{0}}}
\@writefile{nav}{\headcommand {\slideentry {4}{0}{1}{68/68}{}{0}}}
\@writefile{nav}{\headcommand {\beamer@framepages {68}{68}}}
\HyPL@Entry{68<</P(\376\377\0006\0009)>>}
\newlabel{sec:函数}{{4}{69}{函数}{Doc-Start}{}}
\@writefile{snm}{\beamer@slide {sec:函数}{69}}
\@writefile{nav}{\headcommand {\slideentry {4}{0}{2}{69/69}{}{0}}}
\@writefile{nav}{\headcommand {\beamer@framepages {69}{69}}}
\HyPL@Entry{69<</P(\376\377\0007\0000)>>}
\@writefile{nav}{\headcommand {\slideentry {4}{0}{3}{70/70}{}{0}}}
\@writefile{nav}{\headcommand {\beamer@framepages {70}{70}}}
\HyPL@Entry{70<</P(\376\377\0007\0001)>>}
\@writefile{nav}{\headcommand {\slideentry {4}{0}{4}{71/71}{}{0}}}
\@writefile{nav}{\headcommand {\beamer@framepages {71}{71}}}
\HyPL@Entry{71<</P(\376\377\0007\0002)>>}
\@writefile{nav}{\headcommand {\slideentry {4}{0}{5}{72/72}{}{0}}}
\@writefile{nav}{\headcommand {\beamer@framepages {72}{72}}}
\HyPL@Entry{72<</P(\376\377\0007\0003)>>}
\@writefile{nav}{\headcommand {\slideentry {4}{0}{6}{73/73}{}{0}}}
\@writefile{nav}{\headcommand {\beamer@framepages {73}{73}}}
\HyPL@Entry{73<</P(\376\377\0007\0004)>>}
\@writefile{nav}{\headcommand {\slideentry {4}{0}{7}{74/74}{}{0}}}
\@writefile{nav}{\headcommand {\beamer@framepages {74}{74}}}
\HyPL@Entry{74<</P(\376\377\0007\0005)>>}
\@writefile{toc}{\beamer@sectionintoc {5}{递归}{75}{0}{5}}
\@writefile{nav}{\headcommand {\beamer@sectionpages {68}{74}}}
\@writefile{nav}{\headcommand {\beamer@subsectionpages {68}{74}}}
\@writefile{nav}{\headcommand {\sectionentry {5}{递归}{75}{递归}{0}}}
\@writefile{nav}{\headcommand {\slideentry {5}{0}{1}{75/75}{}{0}}}
\@writefile{nav}{\headcommand {\beamer@framepages {75}{75}}}
\HyPL@Entry{75<</P(\376\377\0007\0006)>>}
\newlabel{sec:递归}{{5}{76}{递归}{Doc-Start}{}}
\@writefile{snm}{\beamer@slide {sec:递归}{76}}
\@writefile{nav}{\headcommand {\slideentry {5}{0}{2}{76/76}{}{0}}}
\@writefile{nav}{\headcommand {\beamer@framepages {76}{76}}}
\HyPL@Entry{76<</P(\376\377\0007\0007)>>}
\@writefile{nav}{\headcommand {\slideentry {5}{0}{3}{77/77}{}{0}}}
\@writefile{nav}{\headcommand {\beamer@framepages {77}{77}}}
\HyPL@Entry{77<</P(\376\377\0007\0008)>>}
\@writefile{nav}{\headcommand {\slideentry {5}{0}{4}{78/78}{}{0}}}
\@writefile{nav}{\headcommand {\beamer@framepages {78}{78}}}
\HyPL@Entry{78<</P(\376\377\0007\0009)>>}
\@writefile{nav}{\headcommand {\slideentry {5}{0}{5}{79/79}{}{0}}}
\@writefile{nav}{\headcommand {\beamer@framepages {79}{79}}}
\HyPL@Entry{79<</P(\376\377\0008\0000)>>}
\@writefile{nav}{\headcommand {\slideentry {5}{0}{6}{80/80}{}{0}}}
\@writefile{nav}{\headcommand {\beamer@framepages {80}{80}}}
\HyPL@Entry{80<</P(\376\377\0008\0001)>>}
\@writefile{nav}{\headcommand {\slideentry {5}{0}{7}{81/81}{}{0}}}
\@writefile{nav}{\headcommand {\beamer@framepages {81}{81}}}
\HyPL@Entry{81<</P(\376\377\0008\0002)>>}
\@writefile{nav}{\headcommand {\slideentry {5}{0}{8}{82/82}{}{0}}}
\@writefile{nav}{\headcommand {\beamer@framepages {82}{82}}}
\HyPL@Entry{82<</P(\376\377\0008\0003)>>}
\@writefile{nav}{\headcommand {\slideentry {5}{0}{9}{83/83}{}{0}}}
\@writefile{nav}{\headcommand {\beamer@framepages {83}{83}}}
\HyPL@Entry{83<</P(\376\377\0008\0004)>>}
\@writefile{nav}{\headcommand {\slideentry {5}{0}{10}{84/84}{}{0}}}
\@writefile{nav}{\headcommand {\beamer@framepages {84}{84}}}
\@writefile{nav}{\headcommand {\beamer@partpages {1}{84}}}
\@writefile{nav}{\headcommand {\beamer@subsectionpages {75}{84}}}
\@writefile{nav}{\headcommand {\beamer@sectionpages {75}{84}}}
\@writefile{nav}{\headcommand {\beamer@documentpages {84}}}
\@writefile{nav}{\headcommand {\gdef \inserttotalframenumber {84}}}
\gdef \@abspage@last{84}
