\BOOKMARK [2][]{Outline0.1}{\376\377\145\207\116\366\000I\000O}{}% 1
\BOOKMARK [2][]{Outline0.2}{\376\377\000C\000S\000V}{}% 2
\BOOKMARK [2][]{Outline0.3}{\376\377\000S\000q\000l\000i\000t\000e\0003}{}% 3
\BOOKMARK [2][]{Outline0.4}{\376\377\000J\000S\000O\000N}{}% 4
\BOOKMARK [2][]{Outline0.5}{\376\377\000P\000i\000c\000k\000l\000e}{}% 5
