\headcommand {\slideentry {0}{0}{1}{1/1}{}{0}}
\headcommand {\beamer@framepages {1}{1}}
\headcommand {\beamer@sectionpages {1}{1}}
\headcommand {\beamer@subsectionpages {1}{1}}
\headcommand {\sectionentry {1}{Python日常: os}{2}{Python日常: os}{0}}
\headcommand {\slideentry {1}{0}{1}{2/2}{}{0}}
\headcommand {\beamer@framepages {2}{2}}
\headcommand {\slideentry {1}{0}{2}{3/3}{}{0}}
\headcommand {\beamer@framepages {3}{3}}
\headcommand {\slideentry {1}{0}{3}{4/4}{}{0}}
\headcommand {\beamer@framepages {4}{4}}
\headcommand {\beamer@sectionpages {2}{4}}
\headcommand {\beamer@subsectionpages {2}{4}}
\headcommand {\sectionentry {2}{Python日常: subprocess}{5}{Python日常: subprocess}{0}}
\headcommand {\slideentry {2}{0}{1}{5/5}{}{0}}
\headcommand {\beamer@framepages {5}{5}}
\headcommand {\slideentry {2}{0}{2}{6/6}{}{0}}
\headcommand {\beamer@framepages {6}{6}}
\headcommand {\beamer@sectionpages {5}{6}}
\headcommand {\beamer@subsectionpages {5}{6}}
\headcommand {\sectionentry {3}{Python日常: glob}{7}{Python日常: glob}{0}}
\headcommand {\slideentry {3}{0}{1}{7/7}{}{0}}
\headcommand {\beamer@framepages {7}{7}}
\headcommand {\slideentry {3}{0}{2}{8/8}{}{0}}
\headcommand {\beamer@framepages {8}{8}}
\headcommand {\slideentry {3}{0}{3}{9/9}{}{0}}
\headcommand {\beamer@framepages {9}{9}}
\headcommand {\beamer@partpages {1}{9}}
\headcommand {\beamer@subsectionpages {7}{9}}
\headcommand {\beamer@sectionpages {7}{9}}
\headcommand {\beamer@documentpages {9}}
\headcommand {\gdef \inserttotalframenumber {9}}
